<?xml version="1.0" encoding="UTF-8" standalone="no"?>
<!-- Created with Inkscape (http://www.inkscape.org/) -->

<svg
   xmlns:dc="http://purl.org/dc/elements/1.1/"
   xmlns:cc="http://creativecommons.org/ns#"
   xmlns:rdf="http://www.w3.org/1999/02/22-rdf-syntax-ns#"
   xmlns:svg="http://www.w3.org/2000/svg"
   xmlns="http://www.w3.org/2000/svg"
   xmlns:sodipodi="http://sodipodi.sourceforge.net/DTD/sodipodi-0.dtd"
   xmlns:inkscape="http://www.inkscape.org/namespaces/inkscape"
   width="384"
   height="624"
   viewBox="0 0 101.6 165.10001"
   version="1.1"
   id="svg3821"
   inkscape:version="0.92.2 5c3e80d, 2017-08-06"
   sodipodi:docname="blocks_logos.svg"
   inkscape:export-filename="/home/alfonso/Programme/PicoLisp/picolispffi/sdl/gfx/blocks_logos.png"
   inkscape:export-xdpi="96"
   inkscape:export-ydpi="96">
  <defs
     id="defs3815" />
  <sodipodi:namedview
     id="base"
     pagecolor="#ffffff"
     bordercolor="#666666"
     borderopacity="1.0"
     inkscape:pageopacity="0.0"
     inkscape:pageshadow="2"
     inkscape:zoom="1.979899"
     inkscape:cx="116.50354"
     inkscape:cy="135.22999"
     inkscape:document-units="px"
     inkscape:current-layer="text3866"
     showgrid="true"
     units="px"
     inkscape:snap-bbox="true"
     inkscape:bbox-paths="false"
     inkscape:bbox-nodes="true"
     inkscape:window-width="1440"
     inkscape:window-height="852"
     inkscape:window-x="0"
     inkscape:window-y="0"
     inkscape:window-maximized="1"
     inkscape:snap-global="false">
    <inkscape:grid
       type="xygrid"
       id="grid3823"
       spacingx="6.3500002"
       spacingy="12.7" />
  </sodipodi:namedview>
  <metadata
     id="metadata3818">
    <rdf:RDF>
      <cc:Work
         rdf:about="">
        <dc:format>image/svg+xml</dc:format>
        <dc:type
           rdf:resource="http://purl.org/dc/dcmitype/StillImage" />
        <dc:title />
      </cc:Work>
    </rdf:RDF>
  </metadata>
  <g
     inkscape:label="Ebene 1"
     inkscape:groupmode="layer"
     id="layer1"
     transform="translate(0,-131.89998)">
    <g
       aria-label="go!"
       transform="matrix(0.92991393,0,0,0.87104833,5.0799998,25.890004)"
       style="font-style:normal;font-variant:normal;font-weight:normal;font-stretch:normal;font-size:29.48339653px;line-height:1.25;font-family:Balloony;-inkscape-font-specification:'Balloony, Normal';font-variant-ligatures:normal;font-variant-caps:normal;font-variant-numeric:normal;font-feature-settings:normal;text-align:start;letter-spacing:0px;word-spacing:0px;writing-mode:lr-tb;text-anchor:start;fill:#ff6600;fill-opacity:1;stroke:#ffccaa;stroke-width:0.73708498"
       id="text3827">
      <path
         d="m 30.861095,149.40615 9.918969,-1.55478 -0.691017,-14.00749 q -10.379647,2.10184 -11.08506,2.10184 -0.892563,0 -1.525995,-0.64782 -0.619036,-0.66223 -0.619036,-1.58358 0,-0.93576 0.619036,-1.58358 0.633432,-0.66223 1.525995,-0.66223 0.892564,0 1.525996,0.66223 0.259131,0.27352 1.007732,1.4828 l 7.24128,-1.20928 q -0.575848,-3.29672 -2.79286,-5.81605 -3.008802,-3.4263 -7.270071,-3.4263 -4.26127,0 -7.270072,3.4263 -3.008802,3.42629 -3.008802,8.2634 0,4.85152 3.008802,8.27781 3.008802,3.41189 7.270072,3.41189 1.09411,0 2.332181,-0.21594 z"
         style="font-style:normal;font-variant:normal;font-weight:normal;font-stretch:normal;font-size:29.48337936px;font-family:Chublings;-inkscape-font-specification:'Chublings, Normal';font-variant-ligatures:normal;font-variant-caps:normal;font-variant-numeric:normal;font-feature-settings:normal;text-align:start;writing-mode:lr-tb;text-anchor:start;fill:#ff6600;stroke:#ffccaa;stroke-width:0.73708498"
         id="path3795"
         inkscape:connector-curvature="0" />
      <path
         d="m 53.218364,124.86066 q 4.837117,0 8.263408,3.00881 3.426291,3.0088 3.426291,7.27007 0,4.26127 -3.426291,7.27007 -3.426291,3.0088 -8.263408,3.0088 -4.837117,0 -8.263408,-3.0088 -3.426291,-3.0088 -3.426291,-7.27007 0,-4.26127 3.426291,-7.27007 3.426291,-3.00881 8.263408,-3.00881 z m -1.151694,7.84592 q -0.921356,0 -1.58358,0.63343 -0.647829,0.61904 -0.647829,1.5116 0,0.89257 0.647829,1.526 0.662224,0.61903 1.58358,0.61903 0.921355,0 1.569183,-0.61903 0.662225,-0.63343 0.662225,-1.526 0,-0.89256 -0.662225,-1.5116 -0.647828,-0.63343 -1.569183,-0.63343 z"
         style="font-style:normal;font-variant:normal;font-weight:normal;font-stretch:normal;font-size:29.48337936px;font-family:Chublings;-inkscape-font-specification:'Chublings, Normal';font-variant-ligatures:normal;font-variant-caps:normal;font-variant-numeric:normal;font-feature-settings:normal;text-align:start;writing-mode:lr-tb;text-anchor:start;fill:#ff6600;stroke:#ffccaa;stroke-width:0.73708498"
         id="path3797"
         inkscape:connector-curvature="0" />
      <path
         d="m 66.189324,138.42187 -0.532659,-13.17251 14.237823,-0.59024 -2.908028,14.00748 z m -0.187151,5.83045 0.287924,-4.5204 h 11.416172 l -0.532659,4.86591 z"
         style="font-style:normal;font-variant:normal;font-weight:normal;font-stretch:normal;font-size:29.48337936px;font-family:Chublings;-inkscape-font-specification:'Chublings, Normal';font-variant-ligatures:normal;font-variant-caps:normal;font-variant-numeric:normal;font-feature-settings:normal;text-align:start;writing-mode:lr-tb;text-anchor:start;fill:#ff6600;stroke:#ffccaa;stroke-width:0.73708498"
         id="path3799"
         inkscape:connector-curvature="0" />
    </g>
    <g
       aria-label="WELL DONE!"
       transform="matrix(0.61112408,0,0,1.3254264,5.0800005,28.43001)"
       style="font-style:normal;font-variant:normal;font-weight:normal;font-stretch:normal;font-size:22.39851761px;line-height:1.25;font-family:Balloony;-inkscape-font-specification:'Balloony, Normal';font-variant-ligatures:normal;font-variant-caps:normal;font-variant-numeric:normal;font-feature-settings:normal;text-align:start;letter-spacing:0px;word-spacing:0px;writing-mode:lr-tb;text-anchor:start;fill:#00ccff;fill-opacity:1;stroke:#aaeeff;stroke-width:0.55996299"
       id="text3831">
      <path
         d="m 0,99.073134 1.6623887,15.606766 6.7479857,-0.0656 1.7389466,-5.50119 1.323348,5.65431 6.977658,-0.0109 2.482647,-16.208291 -8.202576,-0.328103 -1.071804,6.496444 -1.399906,-2.69045 -1.3999061,2.70138 -0.6671428,-6.540184 z"
         style="font-style:normal;font-variant:normal;font-weight:normal;font-stretch:normal;font-size:22.39850044px;font-family:Chublings;-inkscape-font-specification:'Chublings, Normal';font-variant-ligatures:normal;font-variant-caps:normal;font-variant-numeric:normal;font-feature-settings:normal;text-align:start;writing-mode:lr-tb;text-anchor:start;fill:#00ccff;stroke:#aaeeff;stroke-width:0.55996299"
         id="path3802"
         inkscape:connector-curvature="0" />
      <path
         d="m 30.721382,105.36178 0.109367,1.11555 5.599625,-0.26249 0.317167,3.33572 -5.654309,0.19686 0.09843,0.90775 5.643372,-0.24061 0.40466,4.19972 -15.803629,0.36091 0.535901,-13.44128 13.889695,-1.26867 0.459345,4.81218 z"
         style="font-style:normal;font-variant:normal;font-weight:normal;font-stretch:normal;font-size:22.39850044px;font-family:Chublings;-inkscape-font-specification:'Chublings, Normal';font-variant-ligatures:normal;font-variant-caps:normal;font-variant-numeric:normal;font-feature-settings:normal;text-align:start;writing-mode:lr-tb;text-anchor:start;fill:#00ccff;stroke:#aaeeff;stroke-width:0.55996299"
         id="path3804"
         inkscape:connector-curvature="0" />
      <path
         d="m 37.841217,100.92145 -0.04375,13.51784 11.888267,-0.18592 0.262482,-8.42131 -3.99192,0.14217 0.667143,-5.79648 z"
         style="font-style:normal;font-variant:normal;font-weight:normal;font-stretch:normal;font-size:22.39850044px;font-family:Chublings;-inkscape-font-specification:'Chublings, Normal';font-variant-ligatures:normal;font-variant-caps:normal;font-variant-numeric:normal;font-feature-settings:normal;text-align:start;writing-mode:lr-tb;text-anchor:start;fill:#00ccff;stroke:#aaeeff;stroke-width:0.55996299"
         id="path3806"
         inkscape:connector-curvature="0" />
      <path
         d="m 50.527866,100.92145 -0.04375,13.51784 11.888267,-0.18592 0.262482,-8.42131 -3.99192,0.14217 0.667143,-5.79648 z"
         style="font-style:normal;font-variant:normal;font-weight:normal;font-stretch:normal;font-size:22.39850044px;font-family:Chublings;-inkscape-font-specification:'Chublings, Normal';font-variant-ligatures:normal;font-variant-caps:normal;font-variant-numeric:normal;font-feature-settings:normal;text-align:start;writing-mode:lr-tb;text-anchor:start;fill:#00ccff;stroke:#aaeeff;stroke-width:0.55996299"
         id="path3808"
         inkscape:connector-curvature="0" />
      <path
         d="M 69.4266,114.52679 68.726646,99.215312 q 17.170726,-0.142178 17.170726,7.513558 0,7.65574 -16.470772,7.79792 z m 5.227775,-10.03996 0.393723,3.82787 q 3.740375,-0.0875 3.740375,-2.01236 0,-1.92487 -4.134098,-1.81551 z"
         style="font-style:normal;font-variant:normal;font-weight:normal;font-stretch:normal;font-size:22.39850044px;font-family:Chublings;-inkscape-font-specification:'Chublings, Normal';font-variant-ligatures:normal;font-variant-caps:normal;font-variant-numeric:normal;font-feature-settings:normal;text-align:start;writing-mode:lr-tb;text-anchor:start;fill:#00ccff;stroke:#aaeeff;stroke-width:0.55996299"
         id="path3810"
         inkscape:connector-curvature="0" />
      <path
         d="m 95.324869,99.259059 q 3.674754,0 6.277701,2.285781 2.60295,2.28579 2.60295,5.52307 0,3.23728 -2.60295,5.52307 -2.602947,2.28578 -6.277701,2.28578 -3.674754,0 -6.277704,-2.28578 -2.602951,-2.28579 -2.602951,-5.52307 0,-3.23728 2.602951,-5.52307 2.60295,-2.285781 6.277704,-2.285781 z m -0.874941,5.960541 q -0.699953,0 -1.203045,0.48122 -0.492154,0.47028 -0.492154,1.14836 0,0.67808 0.492154,1.15929 0.503092,0.47028 1.203045,0.47028 0.699953,0 1.192108,-0.47028 0.503091,-0.48121 0.503091,-1.15929 0,-0.67808 -0.503091,-1.14836 -0.492155,-0.48122 -1.192108,-0.48122 z"
         style="font-style:normal;font-variant:normal;font-weight:normal;font-stretch:normal;font-size:22.39850044px;font-family:Chublings;-inkscape-font-specification:'Chublings, Normal';font-variant-ligatures:normal;font-variant-caps:normal;font-variant-numeric:normal;font-feature-settings:normal;text-align:start;writing-mode:lr-tb;text-anchor:start;fill:#00ccff;stroke:#aaeeff;stroke-width:0.55996299"
         id="path3812"
         inkscape:connector-curvature="0" />
      <path
         d="m 104.94923,114.43929 -0.17499,-15.256788 7.96197,-0.33904 1.55302,3.991918 0.62339,-4.024729 6.99953,-0.142177 -0.54683,16.766066 -8.44319,-0.69995 -1.97955,-4.4294 0.14217,3.90443 z"
         style="font-style:normal;font-variant:normal;font-weight:normal;font-stretch:normal;font-size:22.39850044px;font-family:Chublings;-inkscape-font-specification:'Chublings, Normal';font-variant-ligatures:normal;font-variant-caps:normal;font-variant-numeric:normal;font-feature-settings:normal;text-align:start;writing-mode:lr-tb;text-anchor:start;fill:#00ccff;stroke:#aaeeff;stroke-width:0.55996299"
         id="path3814"
         inkscape:connector-curvature="0" />
      <path
         d="m 131.73337,105.36178 0.10936,1.11555 5.59963,-0.26249 0.31717,3.33572 -5.65431,0.19686 0.0984,0.90775 5.64337,-0.24061 0.40466,4.19972 -15.80363,0.36091 0.5359,-13.44128 13.8897,-1.26867 0.45934,4.81218 z"
         style="font-style:normal;font-variant:normal;font-weight:normal;font-stretch:normal;font-size:22.39850044px;font-family:Chublings;-inkscape-font-specification:'Chublings, Normal';font-variant-ligatures:normal;font-variant-caps:normal;font-variant-numeric:normal;font-feature-settings:normal;text-align:start;writing-mode:lr-tb;text-anchor:start;fill:#00ccff;stroke:#aaeeff;stroke-width:0.55996299"
         id="path3816"
         inkscape:connector-curvature="0" />
      <path
         d="m 139.21412,109.56149 -0.40466,-10.007138 10.81647,-0.448408 -2.20923,10.641476 z m -0.14217,4.4294 0.21873,-3.43415 h 8.67286 l -0.40466,3.69663 z"
         style="font-style:normal;font-variant:normal;font-weight:normal;font-stretch:normal;font-size:22.39850044px;font-family:Chublings;-inkscape-font-specification:'Chublings, Normal';font-variant-ligatures:normal;font-variant-caps:normal;font-variant-numeric:normal;font-feature-settings:normal;text-align:start;writing-mode:lr-tb;text-anchor:start;fill:#00ccff;stroke:#aaeeff;stroke-width:0.55996299"
         id="path3818"
         inkscape:connector-curvature="0" />
    </g>
    <g
       aria-label="HURRY UP!"
       transform="matrix(0.61011324,0,0,1.3276224,5.0800001,30.970007)"
       style="font-style:normal;font-variant:normal;font-weight:normal;font-stretch:normal;font-size:23.50058365px;line-height:1.25;font-family:Balloony;-inkscape-font-specification:'Balloony, Normal';font-variant-ligatures:normal;font-variant-caps:normal;font-variant-numeric:normal;font-feature-settings:normal;text-align:start;letter-spacing:0px;word-spacing:0px;writing-mode:lr-tb;text-anchor:start;fill:#ff0000;fill-opacity:1;stroke:#ffaaaa;stroke-width:0.5875147"
       id="text3839">
      <path
         d="M 2.7008355e-8,131.41814 0.47047142,117.31548 l 8.98485618,-0.65407 -0.1147492,4.75061 1.3540396,-0.11475 0.06885,-4.94569 8.686508,0.37867 0.424572,14.57314 -9.17993,0.61965 0.06885,-5.73746 -1.5491136,0.0344 -0.1491738,5.19813 z"
         style="font-style:normal;font-variant:normal;font-weight:normal;font-stretch:normal;font-size:23.50061989px;font-family:Chublings;-inkscape-font-specification:'Chublings, Normal';font-variant-ligatures:normal;font-variant-caps:normal;font-variant-numeric:normal;font-feature-settings:normal;text-align:start;writing-mode:lr-tb;text-anchor:start;fill:#ff0000;stroke:#ffaaaa;stroke-width:0.5875147"
         id="path3821"
         inkscape:connector-curvature="0" />
      <path
         d="m 36.398421,115.31884 q 2.708079,5.24404 2.708079,8.64061 0,3.39657 -2.731029,5.79483 -2.719554,2.39826 -6.586599,2.39826 -3.855571,0 -6.5866,-2.39826 -2.731029,-2.39826 -2.731029,-5.79483 0,-3.39657 2.731029,-5.79483 2.00811,-1.76714 4.635864,-2.22613 l 0.963893,5.77188 q -0.963893,0.59669 -1.181916,0.80324 -0.527846,0.5049 -0.527846,1.21634 0,0.71145 0.516371,1.21634 0.527846,0.49342 1.273715,0.49342 0.734395,0 1.250766,-0.49342 0.527846,-0.50489 0.527846,-1.21634 0,-0.71144 -0.826194,-2.84578 z"
         style="font-style:normal;font-variant:normal;font-weight:normal;font-stretch:normal;font-size:23.50061989px;font-family:Chublings;-inkscape-font-specification:'Chublings, Normal';font-variant-ligatures:normal;font-variant-caps:normal;font-variant-numeric:normal;font-feature-settings:normal;text-align:start;writing-mode:lr-tb;text-anchor:start;fill:#ff0000;stroke:#ffaaaa;stroke-width:0.5875147"
         id="path3823"
         inkscape:connector-curvature="0" />
      <path
         d="m 47.414335,120.48255 0.183598,2.16876 q 3.2933,0 2.857253,-1.18192 -0.424571,-1.18191 -3.040851,-0.98684 z m 0.722919,7.1374 0.458997,3.70639 -8.893057,0.2295 0.103274,-16.06488 q 17.258268,-1.49173 18.027087,6.01286 0,2.79988 -2.317932,4.18834 l 2.294982,1.66386 -5.966954,5.10634 z"
         style="font-style:normal;font-variant:normal;font-weight:normal;font-stretch:normal;font-size:23.50061989px;font-family:Chublings;-inkscape-font-specification:'Chublings, Normal';font-variant-ligatures:normal;font-variant-caps:normal;font-variant-numeric:normal;font-feature-settings:normal;text-align:start;writing-mode:lr-tb;text-anchor:start;fill:#ff0000;stroke:#ffaaaa;stroke-width:0.5875147"
         id="path3825"
         inkscape:connector-curvature="0" />
      <path
         d="m 66.141393,120.48255 0.183599,2.16876 q 3.293299,0 2.857253,-1.18192 -0.424572,-1.18191 -3.040852,-0.98684 z m 0.722919,7.1374 0.458997,3.70639 -8.893057,0.2295 0.103274,-16.06488 q 17.258268,-1.49173 18.027087,6.01286 0,2.79988 -2.317932,4.18834 l 2.294982,1.66386 -5.966954,5.10634 z"
         style="font-style:normal;font-variant:normal;font-weight:normal;font-stretch:normal;font-size:23.50061989px;font-family:Chublings;-inkscape-font-specification:'Chublings, Normal';font-variant-ligatures:normal;font-variant-caps:normal;font-variant-numeric:normal;font-feature-settings:normal;text-align:start;writing-mode:lr-tb;text-anchor:start;fill:#ff0000;stroke:#ffaaaa;stroke-width:0.5875147"
         id="path3827"
         inkscape:connector-curvature="0" />
      <path
         d="m 75.137726,116.11061 7.401318,-0.81472 1.204866,3.2933 1.549113,-3.21297 8.870107,2.52448 -6.196452,6.23087 -0.126224,7.67672 -8.445536,-0.0803 0.390147,-8.33078 z"
         style="font-style:normal;font-variant:normal;font-weight:normal;font-stretch:normal;font-size:23.50061989px;font-family:Chublings;-inkscape-font-specification:'Chublings, Normal';font-variant-ligatures:normal;font-variant-caps:normal;font-variant-numeric:normal;font-feature-settings:normal;text-align:start;writing-mode:lr-tb;text-anchor:start;fill:#ff0000;stroke:#ffaaaa;stroke-width:0.5875147"
         id="path3829"
         inkscape:connector-curvature="0" />
      <path
         d="m 116.49331,115.31884 q 2.70808,5.24404 2.70808,8.64061 0,3.39657 -2.73103,5.79483 -2.71955,2.39826 -6.5866,2.39826 -3.85557,0 -6.5866,-2.39826 -2.73103,-2.39826 -2.73103,-5.79483 0,-3.39657 2.73103,-5.79483 2.00811,-1.76714 4.63587,-2.22613 l 0.96389,5.77188 q -0.96389,0.59669 -1.18192,0.80324 -0.52784,0.5049 -0.52784,1.21634 0,0.71145 0.51637,1.21634 0.52784,0.49342 1.27371,0.49342 0.7344,0 1.25077,-0.49342 0.52784,-0.50489 0.52784,-1.21634 0,-0.71144 -0.82619,-2.84578 z"
         style="font-style:normal;font-variant:normal;font-weight:normal;font-stretch:normal;font-size:23.50061989px;font-family:Chublings;-inkscape-font-specification:'Chublings, Normal';font-variant-ligatures:normal;font-variant-caps:normal;font-variant-numeric:normal;font-feature-settings:normal;text-align:start;writing-mode:lr-tb;text-anchor:start;fill:#ff0000;stroke:#ffaaaa;stroke-width:0.5875147"
         id="path3831"
         inkscape:connector-curvature="0" />
      <path
         d="m 128.16329,127.08063 0.52785,4.24571 -8.89306,0.2295 0.10327,-16.06488 q 17.25827,-1.49173 18.02709,6.01286 0,5.73745 -9.76515,5.57681 z m -0.65407,-6.59808 0.1836,2.16876 q 3.2933,0 2.85725,-1.18192 -0.42457,-1.18191 -3.04085,-0.98684 z"
         style="font-style:normal;font-variant:normal;font-weight:normal;font-stretch:normal;font-size:23.50061989px;font-family:Chublings;-inkscape-font-specification:'Chublings, Normal';font-variant-ligatures:normal;font-variant-caps:normal;font-variant-numeric:normal;font-feature-settings:normal;text-align:start;writing-mode:lr-tb;text-anchor:start;fill:#ff0000;stroke:#ffaaaa;stroke-width:0.5875147"
         id="path3833"
         inkscape:connector-curvature="0" />
      <path
         d="m 138.9497,126.57573 -0.42457,-10.49955 11.34869,-0.47047 -2.31793,11.16509 z m -0.14917,4.64734 0.2295,-3.60312 h 9.0996 l -0.42457,3.87852 z"
         style="font-style:normal;font-variant:normal;font-weight:normal;font-stretch:normal;font-size:23.50061989px;font-family:Chublings;-inkscape-font-specification:'Chublings, Normal';font-variant-ligatures:normal;font-variant-caps:normal;font-variant-numeric:normal;font-feature-settings:normal;text-align:start;writing-mode:lr-tb;text-anchor:start;fill:#ff0000;stroke:#ffaaaa;stroke-width:0.5875147"
         id="path3835"
         inkscape:connector-curvature="0" />
    </g>
    <g
       aria-label="GAME OVER"
       transform="matrix(0.65486722,0,0,1.236892,5.0850535,33.512167)"
       style="font-style:normal;font-variant:normal;font-weight:normal;font-stretch:normal;font-size:20.74025345px;line-height:1.25;font-family:Balloony;-inkscape-font-specification:'Balloony, Normal';font-variant-ligatures:normal;font-variant-caps:normal;font-variant-numeric:normal;font-feature-settings:normal;text-align:start;letter-spacing:0px;word-spacing:0px;writing-mode:lr-tb;text-anchor:start;fill:#536c67;fill-opacity:1;stroke:#b7c8c4;stroke-width:0.51850641"
       id="text3843">
      <path
         d="m 8.7396191,160.66074 6.9775179,-1.09371 -0.486097,-9.8536 q -7.3015826,1.47855 -7.7978066,1.47855 -0.6278753,0 -1.0734642,-0.45572 -0.4354619,-0.46584 -0.4354619,-1.11397 0,-0.65826 0.4354619,-1.11397 0.4455889,-0.46584 1.0734642,-0.46584 0.6278753,0 1.0734642,0.46584 0.1822864,0.19241 0.7088915,1.04308 l 5.0938919,-0.85067 q -0.405081,-2.31909 -1.964642,-4.09131 -2.116548,-2.41024 -5.114146,-2.41024 -2.9975982,0 -5.1141456,2.41024 Q 0,147.01965 0,150.42233 q 0,3.4128 2.1165474,5.82303 2.1165474,2.40011 5.1141456,2.40011 0.7696536,0 1.6405774,-0.15191 z"
         style="font-style:normal;font-variant:normal;font-weight:normal;font-stretch:normal;font-size:20.74013901px;font-family:Chublings;-inkscape-font-specification:'Chublings, Normal';font-variant-ligatures:normal;font-variant-caps:normal;font-variant-numeric:normal;font-feature-settings:normal;text-align:start;writing-mode:lr-tb;text-anchor:start;fill:#536c67;stroke:#b7c8c4;stroke-width:0.51850641"
         id="path3838"
         inkscape:connector-curvature="0" />
      <path
         d="m 23.342784,155.30355 -0.364573,2.53175 -6.734469,-0.65825 2.683661,-14.1272 10.471339,-0.87092 5.407829,14.33986 -8.628221,1.0127 -0.526606,-2.63302 z m 1.853245,-4.09132 -0.820289,-3.83814 -0.658257,4.02043 z"
         style="font-style:normal;font-variant:normal;font-weight:normal;font-stretch:normal;font-size:20.74013901px;font-family:Chublings;-inkscape-font-specification:'Chublings, Normal';font-variant-ligatures:normal;font-variant-caps:normal;font-variant-numeric:normal;font-feature-settings:normal;text-align:start;writing-mode:lr-tb;text-anchor:start;fill:#536c67;stroke:#b7c8c4;stroke-width:0.51850641"
         id="path3840"
         inkscape:connector-curvature="0" />
      <path
         d="m 35.323051,157.48086 1.42791,-14.40062 6.643326,-0.20255 1.336767,3.04824 1.296259,-3.15963 7.352217,-0.16203 2.025404,14.83608 -8.587714,0.27343 -0.820288,-6.83574 -1.053211,1.82287 -1.103845,-1.85325 -0.415208,6.93701 z"
         style="font-style:normal;font-variant:normal;font-weight:normal;font-stretch:normal;font-size:20.74013901px;font-family:Chublings;-inkscape-font-specification:'Chublings, Normal';font-variant-ligatures:normal;font-variant-caps:normal;font-variant-numeric:normal;font-feature-settings:normal;text-align:start;writing-mode:lr-tb;text-anchor:start;fill:#536c67;stroke:#b7c8c4;stroke-width:0.51850641"
         id="path3842"
         inkscape:connector-curvature="0" />
      <path
         d="m 64.498994,149.04505 0.101271,1.03296 5.185034,-0.24305 0.293684,3.08874 -5.23567,0.18229 0.09114,0.84054 5.225543,-0.2228 0.3747,3.88878 -14.633545,0.33419 0.496224,-12.44611 12.861316,-1.17473 0.425335,4.45589 z"
         style="font-style:normal;font-variant:normal;font-weight:normal;font-stretch:normal;font-size:20.74013901px;font-family:Chublings;-inkscape-font-specification:'Chublings, Normal';font-variant-ligatures:normal;font-variant-caps:normal;font-variant-numeric:normal;font-feature-settings:normal;text-align:start;writing-mode:lr-tb;text-anchor:start;fill:#536c67;stroke:#b7c8c4;stroke-width:0.51850641"
         id="path3844"
         inkscape:connector-curvature="0" />
      <path
         d="m 84.41885,143.39417 q 3.402679,0 5.81291,2.11655 2.410231,2.11655 2.410231,5.11415 0,2.99759 -2.410231,5.11414 -2.410231,2.11655 -5.81291,2.11655 -3.402679,0 -5.81291,-2.11655 -2.410231,-2.11655 -2.410231,-5.11414 0,-2.9976 2.410231,-5.11415 2.410231,-2.11655 5.81291,-2.11655 z m -0.810161,5.51923 q -0.64813,0 -1.113973,0.44559 -0.455716,0.43546 -0.455716,1.06334 0,0.62787 0.455716,1.07346 0.465843,0.43546 1.113973,0.43546 0.648129,0 1.103845,-0.43546 0.465843,-0.44559 0.465843,-1.07346 0,-0.62788 -0.465843,-1.06334 -0.455716,-0.44559 -1.103845,-0.44559 z"
         style="font-style:normal;font-variant:normal;font-weight:normal;font-stretch:normal;font-size:20.74013901px;font-family:Chublings;-inkscape-font-specification:'Chublings, Normal';font-variant-ligatures:normal;font-variant-caps:normal;font-variant-numeric:normal;font-feature-settings:normal;text-align:start;writing-mode:lr-tb;text-anchor:start;fill:#536c67;stroke:#b7c8c4;stroke-width:0.51850641"
         id="path3846"
         inkscape:connector-curvature="0" />
      <path
         d="m 92.560974,143.94103 2.805185,13.74237 9.438381,-0.20254 3.14951,-14.05631 -6.84587,-0.17216 -1.32664,4.48627 -0.789908,-4.34449 z"
         style="font-style:normal;font-variant:normal;font-weight:normal;font-stretch:normal;font-size:20.74013901px;font-family:Chublings;-inkscape-font-specification:'Chublings, Normal';font-variant-ligatures:normal;font-variant-caps:normal;font-variant-numeric:normal;font-feature-settings:normal;text-align:start;writing-mode:lr-tb;text-anchor:start;fill:#536c67;stroke:#b7c8c4;stroke-width:0.51850641"
         id="path3848"
         inkscape:connector-curvature="0" />
      <path
         d="m 117.07849,149.04505 0.10127,1.03296 5.18504,-0.24305 0.29368,3.08874 -5.23567,0.18229 0.0911,0.84054 5.22555,-0.2228 0.3747,3.88878 -14.63355,0.33419 0.49623,-12.44611 12.86131,-1.17473 0.42534,4.45589 z"
         style="font-style:normal;font-variant:normal;font-weight:normal;font-stretch:normal;font-size:20.74013901px;font-family:Chublings;-inkscape-font-specification:'Chublings, Normal';font-variant-ligatures:normal;font-variant-caps:normal;font-variant-numeric:normal;font-feature-settings:normal;text-align:start;writing-mode:lr-tb;text-anchor:start;fill:#536c67;stroke:#b7c8c4;stroke-width:0.51850641"
         id="path3850"
         inkscape:connector-curvature="0" />
      <path
         d="m 130.43603,147.55638 0.16204,1.91401 q 2.90645,0 2.52162,-1.04309 -0.37469,-1.04308 -2.68366,-0.87092 z m 0.63801,6.29901 0.40508,3.27102 -7.84844,0.20254 0.0911,-14.17783 q 15.23104,-1.31651 15.90955,5.30656 0,2.471 -2.04566,3.69637 l 2.02541,1.46841 -5.26606,4.50653 z"
         style="font-style:normal;font-variant:normal;font-weight:normal;font-stretch:normal;font-size:20.74013901px;font-family:Chublings;-inkscape-font-specification:'Chublings, Normal';font-variant-ligatures:normal;font-variant-caps:normal;font-variant-numeric:normal;font-feature-settings:normal;text-align:start;writing-mode:lr-tb;text-anchor:start;fill:#536c67;stroke:#b7c8c4;stroke-width:0.51850641"
         id="path3852"
         inkscape:connector-curvature="0" />
    </g>
    <g
       aria-label="RESTART"
       transform="matrix(0.69227525,0,0,1.1700548,5.08,36.050005)"
       style="font-style:normal;font-variant:normal;font-weight:normal;font-stretch:normal;font-size:25.40486908px;line-height:1.25;font-family:Balloony;-inkscape-font-specification:'Balloony, Normal';font-variant-ligatures:normal;font-variant-caps:normal;font-variant-numeric:normal;font-feature-settings:normal;text-align:start;letter-spacing:0px;word-spacing:0px;writing-mode:lr-tb;text-anchor:start;fill:#0066ff;fill-opacity:1;stroke:#80b3ff;stroke-width:0.63512176"
       id="text3866">
      <path
         d="m 15.125453,177.55291 q 22.7915,10.66055 -12.2002583,11.36384 l -3.27108398,-6.72453 9.47730278,-0.17274 q -24.3651555,-9.61177 9.8486145,-11.78336 l 2.333962,6.9713 z"
         style="font-style:normal;font-variant:normal;font-weight:normal;font-stretch:normal;font-size:25.40500832px;font-family:Chublings;-inkscape-font-specification:'Chublings, Normal';font-variant-ligatures:normal;font-variant-caps:normal;font-variant-numeric:normal;font-feature-settings:normal;text-align:start;writing-mode:lr-tb;text-anchor:start;fill:#0066ff;stroke:#80b3ff;stroke-width:0.75624138"
         id="path3859"
         inkscape:connector-curvature="0" />
      <path
         d="m 23.188235,178.57702 -0.477401,-6.16931 24.18834,-0.91305 -0.548128,7.53888 -4.95083,-0.037 -0.123766,9.41435 -13.544056,0.16041 -0.176816,-9.83387 z"
         style="font-style:normal;font-variant:normal;font-weight:normal;font-stretch:normal;font-size:25.40500832px;font-family:Chublings;-inkscape-font-specification:'Chublings, Normal';font-variant-ligatures:normal;font-variant-caps:normal;font-variant-numeric:normal;font-feature-settings:normal;text-align:start;writing-mode:lr-tb;text-anchor:start;fill:#0066ff;stroke:#80b3ff;stroke-width:0.75624138"
         id="path3861"
         inkscape:connector-curvature="0" />
      <path
         d="m 58.091589,185.88146 -0.636536,3.08465 -11.758221,-0.80201 4.685608,-17.21234 18.282707,-1.06112 9.441939,17.47146 -15.064667,1.23385 -0.91944,-3.20803 z m 3.235721,-4.98479 -1.432205,-4.67633 -1.149299,4.89842 z"
         style="font-style:normal;font-variant:normal;font-weight:normal;font-stretch:normal;font-size:25.40500832px;font-family:Chublings;-inkscape-font-specification:'Chublings, Normal';font-variant-ligatures:normal;font-variant-caps:normal;font-variant-numeric:normal;font-feature-settings:normal;text-align:start;writing-mode:lr-tb;text-anchor:start;fill:#0066ff;stroke:#80b3ff;stroke-width:0.75624138"
         id="path3863"
         inkscape:connector-curvature="0" />
      <path
         d="m 90.890827,176.44244 0.282909,2.33199 q 5.074609,0 4.402699,-1.27088 -0.654207,-1.27087 -4.685608,-1.06111 z m 1.113948,7.6746 0.70726,3.98536 -13.703194,0.24678 0.159134,-17.27404 q 26.593025,-1.60401 27.777685,6.46543 0,3.01061 -3.57166,4.50358 l 3.5363,1.78911 -9.194399,5.49067 z"
         style="font-style:normal;font-variant:normal;font-weight:normal;font-stretch:normal;font-size:25.40500832px;font-family:Chublings;-inkscape-font-specification:'Chublings, Normal';font-variant-ligatures:normal;font-variant-caps:normal;font-variant-numeric:normal;font-feature-settings:normal;text-align:start;writing-mode:lr-tb;text-anchor:start;fill:#0066ff;stroke:#80b3ff;stroke-width:0.75624138"
         id="path3865"
         inkscape:connector-curvature="0" />
      <path
         d="m 108.34251,178.57702 -0.47741,-6.16931 24.18834,-0.91305 -0.54813,7.53888 -4.95083,-0.037 -0.12372,9.41435 -13.54406,0.16041 -0.17682,-9.83387 z"
         style="font-style:normal;font-variant:normal;font-weight:normal;font-stretch:normal;font-size:25.40500832px;font-family:Chublings;-inkscape-font-specification:'Chublings, Normal';font-variant-ligatures:normal;font-variant-caps:normal;font-variant-numeric:normal;font-feature-settings:normal;text-align:start;writing-mode:lr-tb;text-anchor:start;fill:#0066ff;stroke:#80b3ff;stroke-width:0.75624138"
         id="path3867"
         inkscape:connector-curvature="0" />
    </g>
    <g
       aria-label="level"
       transform="matrix(0.83375118,0,0,0.97151283,2.5400001,37.955004)"
       style="font-style:normal;font-variant:normal;font-weight:normal;font-stretch:normal;font-size:16.6058197px;line-height:1.25;font-family:Chublings;-inkscape-font-specification:'Chublings, Normal';font-variant-ligatures:normal;font-variant-caps:normal;font-variant-numeric:normal;font-feature-settings:normal;text-align:start;letter-spacing:0px;word-spacing:0px;writing-mode:lr-tb;text-anchor:start;fill:#cc00ff;fill-opacity:1;stroke:#eeaaff;stroke-width:0.41514188"
       id="text3870">
      <path
         d="M 0.03243323,229.42323 0,239.4451 l 8.8137334,-0.13784 0.1945994,-6.2434 -2.9595332,0.10541 0.4946069,-4.29741 z"
         style="font-style:normal;font-variant:normal;font-weight:normal;font-stretch:normal;font-size:16.6058197px;font-family:Chublings;-inkscape-font-specification:'Chublings, Normal';font-variant-ligatures:normal;font-variant-caps:normal;font-variant-numeric:normal;font-feature-settings:normal;text-align:start;writing-mode:lr-tb;text-anchor:start;fill:#cc00ff;stroke:#eeaaff;stroke-width:0.41514188"
         id="path3870"
         inkscape:connector-curvature="0" />
      <path
         d="m 16.289595,232.7152 0.08108,0.82705 4.151455,-0.1946 0.235141,2.47303 -4.191996,0.14595 0.07297,0.67299 4.183888,-0.17838 0.300007,3.11359 -11.7165084,0.26757 0.3973073,-9.96511 10.2975541,-0.94056 0.340549,3.56765 z"
         style="font-style:normal;font-variant:normal;font-weight:normal;font-stretch:normal;font-size:16.6058197px;font-family:Chublings;-inkscape-font-specification:'Chublings, Normal';font-variant-ligatures:normal;font-variant-caps:normal;font-variant-numeric:normal;font-feature-settings:normal;text-align:start;writing-mode:lr-tb;text-anchor:start;fill:#cc00ff;stroke:#eeaaff;stroke-width:0.41514188"
         id="path3872"
         inkscape:connector-curvature="0" />
      <path
         d="m 20.951874,228.62861 2.246002,11.00298 7.556945,-0.16217 2.521685,-11.25433 -5.481218,-0.13784 -1.062189,3.59198 -0.632448,-3.47847 z"
         style="font-style:normal;font-variant:normal;font-weight:normal;font-stretch:normal;font-size:16.6058197px;font-family:Chublings;-inkscape-font-specification:'Chublings, Normal';font-variant-ligatures:normal;font-variant-caps:normal;font-variant-numeric:normal;font-feature-settings:normal;text-align:start;writing-mode:lr-tb;text-anchor:start;fill:#cc00ff;stroke:#eeaaff;stroke-width:0.41514188"
         id="path3874"
         inkscape:connector-curvature="0" />
      <path
         d="m 40.582091,232.7152 0.08108,0.82705 4.151455,-0.1946 0.235141,2.47303 -4.191997,0.14595 0.07297,0.67299 4.183888,-0.17838 0.300008,3.11359 -11.716509,0.26757 0.397308,-9.96511 10.297554,-0.94056 0.340549,3.56765 z"
         style="font-style:normal;font-variant:normal;font-weight:normal;font-stretch:normal;font-size:16.6058197px;font-family:Chublings;-inkscape-font-specification:'Chublings, Normal';font-variant-ligatures:normal;font-variant-caps:normal;font-variant-numeric:normal;font-feature-settings:normal;text-align:start;writing-mode:lr-tb;text-anchor:start;fill:#cc00ff;stroke:#eeaaff;stroke-width:0.41514188"
         id="path3876"
         inkscape:connector-curvature="0" />
      <path
         d="m 45.860604,229.42323 -0.03243,10.02187 8.813733,-0.13784 0.1946,-6.2434 -2.959534,0.10541 0.494607,-4.29741 z"
         style="font-style:normal;font-variant:normal;font-weight:normal;font-stretch:normal;font-size:16.6058197px;font-family:Chublings;-inkscape-font-specification:'Chublings, Normal';font-variant-ligatures:normal;font-variant-caps:normal;font-variant-numeric:normal;font-feature-settings:normal;text-align:start;writing-mode:lr-tb;text-anchor:start;fill:#cc00ff;stroke:#eeaaff;stroke-width:0.41514188"
         id="path3878"
         inkscape:connector-curvature="0" />
    </g>
    <g
       aria-label="SCORE"
       transform="matrix(0.82460638,0,0,0.98228682,7.6199986,37.955006)"
       style="font-style:normal;font-variant:normal;font-weight:normal;font-stretch:normal;font-size:14.67410851px;line-height:1.25;font-family:Chublings;-inkscape-font-specification:'Chublings, Normal';font-variant-ligatures:normal;font-variant-caps:normal;font-variant-numeric:normal;font-feature-settings:normal;text-align:start;letter-spacing:0px;word-spacing:0px;writing-mode:lr-tb;text-anchor:start;fill:#00d455;fill-opacity:1;stroke:#aaffcc;stroke-width:0.36685261"
       id="text3874">
      <path
         d="m 61.980356,230.01084 q 9.235804,6.19064 -4.943913,6.59905 l -1.325543,-3.90497 3.84049,-0.10031 q -9.873497,-5.58161 3.990956,-6.84267 l 0.945792,4.04828 z"
         style="font-style:normal;font-variant:normal;font-weight:normal;font-stretch:normal;font-size:14.67410851px;font-family:Chublings;-inkscape-font-specification:'Chublings, Normal';font-variant-ligatures:normal;font-variant-caps:normal;font-variant-numeric:normal;font-feature-settings:normal;text-align:start;writing-mode:lr-tb;text-anchor:start;fill:#00d455;stroke:#aaffcc;stroke-width:0.36685261"
         id="path3881"
         inkscape:connector-curvature="0" />
      <path
         d="m 76.482502,235.5208 q -3.274447,1.69096 -5.395314,1.69096 -2.120867,0 -3.618372,-1.69813 -1.497504,-1.70529 -1.497504,-4.11993 0,-2.40747 1.497504,-4.11276 1.497505,-1.70529 3.618372,-1.70529 2.120867,0 3.618371,1.70529 1.103425,1.25389 1.390028,2.8947 l -3.604041,0.60187 q -0.372585,-0.60187 -0.501557,-0.73801 -0.315264,-0.32959 -0.759499,-0.32959 -0.444236,0 -0.7595,0.32959 -0.308099,0.32243 -0.308099,0.78816 0,0.45857 0.308099,0.78816 0.315264,0.32243 0.7595,0.32243 0.444235,0 1.776943,-0.51589 z"
         style="font-style:normal;font-variant:normal;font-weight:normal;font-stretch:normal;font-size:14.67410851px;font-family:Chublings;-inkscape-font-specification:'Chublings, Normal';font-variant-ligatures:normal;font-variant-caps:normal;font-variant-numeric:normal;font-feature-settings:normal;text-align:start;writing-mode:lr-tb;text-anchor:start;fill:#00d455;stroke:#aaffcc;stroke-width:0.36685261"
         id="path3883"
         inkscape:connector-curvature="0" />
      <path
         d="m 82.651647,226.42113 q 2.407471,0 4.112763,1.4975 1.705292,1.49751 1.705292,3.61838 0,2.12086 -1.705292,3.61837 -1.705292,1.4975 -4.112763,1.4975 -2.407471,0 -4.112763,-1.4975 -1.705292,-1.49751 -1.705292,-3.61837 0,-2.12087 1.705292,-3.61838 1.705292,-1.4975 4.112763,-1.4975 z m -0.573208,3.90498 q -0.458565,0 -0.78816,0.31526 -0.322429,0.3081 -0.322429,0.75233 0,0.44424 0.322429,0.7595 0.329595,0.3081 0.78816,0.3081 0.458566,0 0.780995,-0.3081 0.329595,-0.31526 0.329595,-0.7595 0,-0.44423 -0.329595,-0.75233 -0.322429,-0.31526 -0.780995,-0.31526 z"
         style="font-style:normal;font-variant:normal;font-weight:normal;font-stretch:normal;font-size:14.67410851px;font-family:Chublings;-inkscape-font-specification:'Chublings, Normal';font-variant-ligatures:normal;font-variant-caps:normal;font-variant-numeric:normal;font-feature-settings:normal;text-align:start;writing-mode:lr-tb;text-anchor:start;fill:#00d455;stroke:#aaffcc;stroke-width:0.36685261"
         id="path3885"
         inkscape:connector-curvature="0" />
      <path
         d="m 93.657228,229.36598 0.114641,1.35421 q 2.056381,0 1.784108,-0.73801 -0.265108,-0.738 -1.898749,-0.6162 z m 0.4514,4.45669 0.286604,2.31433 -5.552946,0.1433 0.06449,-10.03113 q 10.776298,-0.93146 11.256354,3.75451 0,1.74828 -1.447343,2.61526 l 1.433013,1.03893 -3.725843,3.18847 z"
         style="font-style:normal;font-variant:normal;font-weight:normal;font-stretch:normal;font-size:14.67410851px;font-family:Chublings;-inkscape-font-specification:'Chublings, Normal';font-variant-ligatures:normal;font-variant-caps:normal;font-variant-numeric:normal;font-feature-settings:normal;text-align:start;writing-mode:lr-tb;text-anchor:start;fill:#00d455;stroke:#aaffcc;stroke-width:0.36685261"
         id="path3887"
         inkscape:connector-curvature="0" />
      <path
         d="m 106.61888,230.41925 0.0716,0.73084 3.66853,-0.17196 0.20779,2.18535 -3.70436,0.12897 0.0645,0.59471 3.69719,-0.15764 0.26511,2.7514 -10.35356,0.23645 0.35109,-8.8059 9.09966,-0.83115 0.30094,3.15264 z"
         style="font-style:normal;font-variant:normal;font-weight:normal;font-stretch:normal;font-size:14.67410851px;font-family:Chublings;-inkscape-font-specification:'Chublings, Normal';font-variant-ligatures:normal;font-variant-caps:normal;font-variant-numeric:normal;font-feature-settings:normal;text-align:start;writing-mode:lr-tb;text-anchor:start;fill:#00d455;stroke:#aaffcc;stroke-width:0.36685261"
         id="path3889"
         inkscape:connector-curvature="0" />
    </g>
    <g
       aria-label="0"
       transform="matrix(0.43860508,0,0,0.86380174,0.1889881,62.646962)"
       style="font-style:normal;font-variant:normal;font-weight:normal;font-stretch:normal;font-size:17.07956123px;line-height:1.25;font-family:Chublings;-inkscape-font-specification:'Chublings, Normal';font-variant-ligatures:normal;font-variant-caps:normal;font-variant-numeric:normal;font-feature-settings:normal;text-align:start;letter-spacing:0px;word-spacing:0px;writing-mode:lr-tb;text-anchor:start;fill:#ffffff;fill-opacity:1;stroke:#000000;stroke-width:0.42698762"
       id="text3878">
      <path
         d="m 6.7717792,242.77443 q 2.8021155,0 4.7869468,1.74298 1.984832,1.74298 1.984832,4.21151 0,2.46853 -1.984832,4.21152 -1.9848313,1.74298 -4.7869468,1.74298 -2.8021156,0 -4.7869474,-1.74298 Q 0,251.19745 0,248.72892 q 0,-2.46853 1.9848318,-4.21151 1.9848318,-1.74298 4.7869474,-1.74298 z m -0.6671704,4.54509 q -0.5337363,0 -0.9173593,0.36695 -0.3752833,0.3586 -0.3752833,0.87566 0,0.51706 0.3752833,0.884 0.383623,0.3586 0.9173593,0.3586 0.5337363,0 0.9090196,-0.3586 0.383623,-0.36694 0.383623,-0.884 0,-0.51706 -0.383623,-0.87566 -0.3752833,-0.36695 -0.9090196,-0.36695 z"
         style="font-style:normal;font-variant:normal;font-weight:normal;font-stretch:normal;font-size:17.07956123px;font-family:Chublings;-inkscape-font-specification:'Chublings, Normal';font-variant-ligatures:normal;font-variant-caps:normal;font-variant-numeric:normal;font-feature-settings:normal;text-align:start;writing-mode:lr-tb;text-anchor:start;fill:#ffffff;stroke:#000000;stroke-width:0.42698762"
         id="path3892"
         inkscape:connector-curvature="0" />
    </g>
    <g
       aria-label="1"
       transform="matrix(0.64812406,0,0,0.73118966,-1.8103385,62.82591)"
       style="font-style:normal;font-variant:normal;font-weight:normal;font-stretch:normal;font-size:18.72403336px;line-height:1.25;font-family:Chublings;-inkscape-font-specification:'Chublings, Normal';font-variant-ligatures:normal;font-variant-caps:normal;font-variant-numeric:normal;font-feature-settings:normal;text-align:start;letter-spacing:0px;word-spacing:0px;writing-mode:lr-tb;text-anchor:start;fill:#ffffff;fill-opacity:1;stroke:#000000;stroke-width:0.46809927"
       id="text3886">
      <path
         d="m 20.332537,287.85196 1.572526,11.2271 -8.722035,0.88683 0.402274,-11.82137 z"
         style="font-style:normal;font-variant:normal;font-weight:normal;font-stretch:normal;font-size:18.72403336px;font-family:Chublings;-inkscape-font-specification:'Chublings, Normal';font-variant-ligatures:normal;font-variant-caps:normal;font-variant-numeric:normal;font-feature-settings:normal;text-align:start;writing-mode:lr-tb;text-anchor:start;fill:#ffffff;stroke:#000000;stroke-width:0.46809927"
         id="path3895"
         inkscape:connector-curvature="0" />
    </g>
    <g
       aria-label="2"
       transform="matrix(0.5074671,0,0,0.77033848,0.55184407,63.097501)"
       style="font-style:normal;font-variant:normal;font-weight:normal;font-stretch:normal;font-size:16.98680496px;line-height:1.25;font-family:Chublings;-inkscape-font-specification:'Chublings, Normal';font-variant-ligatures:normal;font-variant-caps:normal;font-variant-numeric:normal;font-feature-settings:normal;text-align:start;letter-spacing:0px;word-spacing:0px;writing-mode:lr-tb;text-anchor:start;fill:#ffffff;fill-opacity:1;stroke:#000000;stroke-width:0.42346391"
       id="text3890">
      <path
         d="m 32.891823,279.80237 q -3.284558,0.35666 -2.604422,0.8792 l 5.772859,-0.31518 0.174181,5.21714 -12.068262,-1.26904 q -0.174181,-6.52764 2.720543,-6.80965 2.903018,-0.282 2.994256,-0.71331 0.09124,-0.43131 -4.313056,-0.24054 l 0.464483,-4.32135 q 9.015946,0.49766 9.579961,3.85687 0.572309,3.35091 -2.720543,3.71586 z"
         style="font-style:normal;font-variant:normal;font-weight:normal;font-stretch:normal;font-size:16.98680496px;font-family:Chublings;-inkscape-font-specification:'Chublings, Normal';font-variant-ligatures:normal;font-variant-caps:normal;font-variant-numeric:normal;font-feature-settings:normal;text-align:start;writing-mode:lr-tb;text-anchor:start;fill:#ffffff;stroke:#000000;stroke-width:0.42346391"
         id="path3898"
         inkscape:connector-curvature="0" />
    </g>
    <g
       aria-label="3"
       transform="matrix(0.48301228,0,0,0.78438555,1.4529371,63.003007)"
       style="font-style:normal;font-variant:normal;font-weight:normal;font-stretch:normal;font-size:16.94300079px;line-height:1.25;font-family:Chublings;-inkscape-font-specification:'Chublings, Normal';font-variant-ligatures:normal;font-variant-caps:normal;font-variant-numeric:normal;font-feature-settings:normal;text-align:start;letter-spacing:0px;word-spacing:0px;writing-mode:lr-tb;text-anchor:start;fill:#ffffff;fill-opacity:1;stroke:#000000;stroke-width:0.42237192"
       id="text3894">
      <path
         d="m 47.145355,273.73291 q 2.779711,0.95966 1.786957,4.11993 -0.984481,3.15199 -11.788953,2.5067 l 0.380556,-4.07856 q 4.136475,0.0993 4.136475,-0.59566 0,-0.7032 -2.589434,-0.38883 l 0.115822,-3.07753 q 2.473612,0.19028 3.185085,-0.77766 l -5.476692,-0.0993 0.397101,-3.98756 11.424944,0.48811 q 1.20785,4.54185 -1.571861,5.89034 z"
         style="font-style:normal;font-variant:normal;font-weight:normal;font-stretch:normal;font-size:16.94300079px;font-family:Chublings;-inkscape-font-specification:'Chublings, Normal';font-variant-ligatures:normal;font-variant-caps:normal;font-variant-numeric:normal;font-feature-settings:normal;text-align:start;writing-mode:lr-tb;text-anchor:start;fill:#ffffff;stroke:#000000;stroke-width:0.42237192"
         id="path3901"
         inkscape:connector-curvature="0" />
    </g>
    <g
       aria-label="4"
       transform="matrix(0.41900659,0,0,0.90420471,1.8815693,63.097511)"
       style="font-style:normal;font-variant:normal;font-weight:normal;font-stretch:normal;font-size:17.1700592px;line-height:1.25;font-family:Chublings;-inkscape-font-specification:'Chublings, Normal';font-variant-ligatures:normal;font-variant-caps:normal;font-variant-numeric:normal;font-feature-settings:normal;text-align:start;letter-spacing:0px;word-spacing:0px;writing-mode:lr-tb;text-anchor:start;fill:#ffffff;fill-opacity:1;stroke:#000000;stroke-width:0.41666427"
       id="text3898">
      <path
         d="m 56.70815,232.63069 6.564529,-0.47788 -0.08384,3.4709 0.98929,-0.0838 0.0503,-3.61342 6.346551,0.27666 0.310201,10.64745 -6.707055,0.45273 0.0503,-4.19191 -7.302305,0.71262 z"
         style="font-style:normal;font-variant:normal;font-weight:normal;font-stretch:normal;font-size:17.1700592px;font-family:Chublings;-inkscape-font-specification:'Chublings, Normal';font-variant-ligatures:normal;font-variant-caps:normal;font-variant-numeric:normal;font-feature-settings:normal;text-align:start;writing-mode:lr-tb;text-anchor:start;fill:#ffffff;stroke:#000000;stroke-width:0.41666427"
         id="path3904"
         inkscape:connector-curvature="0" />
    </g>
    <g
       aria-label="5"
       transform="matrix(0.4996438,0,0,0.77033815,1.724318,63.097503)"
       style="font-style:normal;font-variant:normal;font-weight:normal;font-stretch:normal;font-size:16.98679733px;line-height:1.25;font-family:Chublings;-inkscape-font-specification:'Chublings, Normal';font-variant-ligatures:normal;font-variant-caps:normal;font-variant-numeric:normal;font-feature-settings:normal;text-align:start;letter-spacing:0px;word-spacing:0px;writing-mode:lr-tb;text-anchor:start;fill:#ffffff;fill-opacity:1;stroke:#000000;stroke-width:0.42108935"
       id="text3902">
      <path
         d="m 69.126234,278.01922 q 3.292851,0.35665 2.720542,3.71586 -0.564015,3.35091 -9.579957,3.84857 l -0.464483,-4.32135 q 4.404292,0.19077 4.313054,-0.24053 -0.09124,-0.43131 -2.994254,-0.71332 -2.894723,-0.282 -2.720542,-6.80965 l 12.068257,-1.26903 -0.174181,5.21714 -5.772857,-0.31519 q -0.680136,0.52255 2.604421,0.8875 z"
         style="font-style:normal;font-variant:normal;font-weight:normal;font-stretch:normal;font-size:16.98679733px;font-family:Chublings;-inkscape-font-specification:'Chublings, Normal';font-variant-ligatures:normal;font-variant-caps:normal;font-variant-numeric:normal;font-feature-settings:normal;text-align:start;writing-mode:lr-tb;text-anchor:start;fill:#ffffff;stroke:#000000;stroke-width:0.42108935"
         id="path3907"
         inkscape:connector-curvature="0" />
    </g>
    <g
       aria-label="6"
       transform="matrix(0.45278304,0,0,0.83675349,2.6065197,63.087256)"
       style="font-style:normal;font-variant:normal;font-weight:normal;font-stretch:normal;font-size:16.3913002px;line-height:1.25;font-family:Chublings;-inkscape-font-specification:'Chublings, Normal';font-variant-ligatures:normal;font-variant-caps:normal;font-variant-numeric:normal;font-feature-settings:normal;text-align:start;letter-spacing:0px;word-spacing:0px;writing-mode:lr-tb;text-anchor:start;fill:#ffffff;fill-opacity:1;stroke:#000000;stroke-width:0.42757869"
       id="text3906">
      <path
         d="m 84.069791,262.87528 q -8.435757,0.75234 -3.577594,-12.3575 l 6.354831,0.6723 -1.112496,3.29747 q 5.314367,-2.40107 6.042692,2.62517 0.736327,5.01823 -7.707433,5.76256 z m 1.896845,-5.67452 q -0.4482,0.16007 -0.688307,0.49622 -0.240107,0.33615 -0.128057,0.64828 0.11205,0.31214 0.512228,0.41619 0.400178,0.10405 0.856382,-0.064 0.448199,-0.16807 0.688306,-0.50422 0.240107,-0.33615 0.128057,-0.64829 -0.11205,-0.30414 -0.512228,-0.40818 -0.400178,-0.10405 -0.856381,0.064 z"
         style="font-style:normal;font-variant:normal;font-weight:normal;font-stretch:normal;font-size:16.3913002px;font-family:Chublings;-inkscape-font-specification:'Chublings, Normal';font-variant-ligatures:normal;font-variant-caps:normal;font-variant-numeric:normal;font-feature-settings:normal;text-align:start;writing-mode:lr-tb;text-anchor:start;fill:#ffffff;stroke:#000000;stroke-width:0.42757869"
         id="path3910"
         inkscape:connector-curvature="0" />
    </g>
    <g
       aria-label="7"
       transform="matrix(0.5143077,0,0,0.74837433,44.557318,52.958652)"
       style="font-style:normal;font-variant:normal;font-weight:normal;font-stretch:normal;font-size:18.73013496px;line-height:1.25;font-family:Chublings;-inkscape-font-specification:'Chublings, Normal';font-variant-ligatures:normal;font-variant-caps:normal;font-variant-numeric:normal;font-feature-settings:normal;text-align:start;letter-spacing:0px;word-spacing:0px;writing-mode:lr-tb;text-anchor:start;fill:#ffffff;fill-opacity:1;stroke:#000000;stroke-width:0.43518966"
       id="text3910">
      <path
         d="M 8.8346242,307.71098 0.87797509,305.89101 3.4021534,299.14158 1.3969839e-8,299.35192 0.00914559,294.17553 11.733771,293.96518 Z"
         style="font-style:normal;font-variant:normal;font-weight:normal;font-stretch:normal;font-size:18.73013496px;font-family:Chublings;-inkscape-font-specification:'Chublings, Normal';font-variant-ligatures:normal;font-variant-caps:normal;font-variant-numeric:normal;font-feature-settings:normal;text-align:start;writing-mode:lr-tb;text-anchor:start;fill:#ffffff;stroke:#000000;stroke-width:0.43518966"
         id="path3913"
         inkscape:connector-curvature="0" />
    </g>
    <g
       aria-label="8"
       transform="matrix(0.47203852,0,0,0.80262064,45.061534,53.053143)"
       style="font-style:normal;font-variant:normal;font-weight:normal;font-stretch:normal;font-size:15.86985493px;line-height:1.25;font-family:Chublings;-inkscape-font-specification:'Chublings, Normal';font-variant-ligatures:normal;font-variant-caps:normal;font-variant-numeric:normal;font-feature-settings:normal;text-align:start;letter-spacing:0px;word-spacing:0px;writing-mode:lr-tb;text-anchor:start;fill:#ffffff;fill-opacity:1;stroke:#000000;stroke-width:0.41333532"
       id="text3914">
      <path
         d="m 18.256533,281.26487 q -0.495933,0 -0.852385,0.28671 -0.348703,0.27897 -0.348703,0.67416 0,0.38745 0.348703,0.67416 0.356452,0.27896 0.852385,0.27896 0.495932,0 0.844635,-0.27896 0.356452,-0.28671 0.356452,-0.67416 0,-0.39519 -0.356452,-0.67416 -0.348703,-0.28671 -0.844635,-0.28671 z m 0.278962,-4.77335 q -0.348703,0 -0.59667,0.19372 -0.247966,0.19373 -0.247966,0.48044 0,0.27121 0.247966,0.47268 0.247967,0.19373 0.59667,0.19373 0.348703,0 0.596669,-0.19373 0.247967,-0.20147 0.247967,-0.47268 0,-0.28671 -0.247967,-0.48044 -0.247966,-0.19372 -0.596669,-0.19372 z m 4.277422,2.29369 q 0.263464,0.15498 0.511431,0.34095 1.84425,1.33282 1.84425,3.22357 0,1.89074 -1.84425,3.23131 -1.844251,1.33282 -4.447899,1.33282 -2.603648,0 -4.447899,-1.33282 -1.844251,-1.34057 -1.844251,-3.23131 0,-1.89075 1.844251,-3.22357 0.255715,-0.18597 0.51918,-0.3487 -0.480435,-0.65866 -0.480435,-1.4723 0,-1.33282 1.294075,-2.27044 1.294075,-0.93763 3.122828,-0.93763 1.828753,0 3.122828,0.93763 1.294075,0.93762 1.294075,2.27044 0,0.81364 -0.488184,1.48005 z"
         style="font-style:normal;font-variant:normal;font-weight:normal;font-stretch:normal;font-size:15.86985493px;font-family:Chublings;-inkscape-font-specification:'Chublings, Normal';font-variant-ligatures:normal;font-variant-caps:normal;font-variant-numeric:normal;font-feature-settings:normal;text-align:start;writing-mode:lr-tb;text-anchor:start;fill:#ffffff;stroke:#000000;stroke-width:0.41333532"
         id="path3916"
         inkscape:connector-curvature="0" />
    </g>
    <g
       aria-label="9"
       transform="matrix(0.45460182,0,0,0.833406,45.471255,52.958651)"
       style="font-style:normal;font-variant:normal;font-weight:normal;font-stretch:normal;font-size:16.31856728px;line-height:1.25;font-family:Chublings;-inkscape-font-specification:'Chublings, Normal';font-variant-ligatures:normal;font-variant-caps:normal;font-variant-numeric:normal;font-feature-settings:normal;text-align:start;letter-spacing:0px;word-spacing:0px;writing-mode:lr-tb;text-anchor:start;fill:#ffffff;fill-opacity:1;stroke:#000000;stroke-width:0.41970745"
       id="text3918">
      <path
         d="m 33.864824,264.01282 q 8.406293,-0.749 3.569687,12.30267 l -6.326632,-0.66932 1.107559,-3.28284 q -5.290786,2.39042 -6.023846,-2.60555 -0.725093,-5.00394 7.673232,-5.74496 z m -1.88046,5.64934 q 0.446211,-0.16733 0.685253,-0.50198 0.239041,-0.33466 0.127488,-0.64542 -0.111552,-0.30278 -0.509955,-0.40637 -0.398402,-0.10358 -0.852581,0.0638 -0.446211,0.15936 -0.685253,0.49402 -0.239041,0.33466 -0.127488,0.64541 0.111552,0.31075 0.509955,0.41434 0.398402,0.0956 0.852581,-0.0638 z"
         style="font-style:normal;font-variant:normal;font-weight:normal;font-stretch:normal;font-size:16.31856728px;font-family:Chublings;-inkscape-font-specification:'Chublings, Normal';font-variant-ligatures:normal;font-variant-caps:normal;font-variant-numeric:normal;font-feature-settings:normal;text-align:start;writing-mode:lr-tb;text-anchor:start;fill:#ffffff;stroke:#000000;stroke-width:0.41970745"
         id="path3919"
         inkscape:connector-curvature="0" />
    </g>
  </g>
</svg>
