<?xml version="1.0" encoding="UTF-8" standalone="no"?>
<!-- Generator: Adobe Illustrator 19.0.0, SVG Export Plug-In . SVG Version: 6.00 Build 0)  -->

<svg
   xmlns:dc="http://purl.org/dc/elements/1.1/"
   xmlns:cc="http://creativecommons.org/ns#"
   xmlns:rdf="http://www.w3.org/1999/02/22-rdf-syntax-ns#"
   xmlns:svg="http://www.w3.org/2000/svg"
   xmlns="http://www.w3.org/2000/svg"
   xmlns:sodipodi="http://sodipodi.sourceforge.net/DTD/sodipodi-0.dtd"
   xmlns:inkscape="http://www.inkscape.org/namespaces/inkscape"
   version="1.1"
   x="0px"
   y="0px"
   viewBox="0 0 383.99999 48"
   xml:space="preserve"
   id="svg333"
   sodipodi:docname="blocks.svg"
   inkscape:version="0.92.2 5c3e80d, 2017-08-06"
   width="384"
   height="48"
   inkscape:export-filename="/home/alfonso/Programmierung/PicoLisp/picolispffi/sdl/gfx/blocks_blocks.png"
   inkscape:export-xdpi="96"
   inkscape:export-ydpi="96"><metadata
     id="metadata339"><rdf:RDF><cc:Work
         rdf:about=""><dc:format>image/svg+xml</dc:format><dc:type
           rdf:resource="http://purl.org/dc/dcmitype/StillImage" /><dc:title /></cc:Work></rdf:RDF></metadata><defs
     id="defs337" /><sodipodi:namedview
     pagecolor="#ffffff"
     bordercolor="#666666"
     borderopacity="1"
     objecttolerance="10"
     gridtolerance="10"
     guidetolerance="10"
     inkscape:pageopacity="0"
     inkscape:pageshadow="2"
     inkscape:window-width="1440"
     inkscape:window-height="852"
     id="namedview335"
     showgrid="false"
     inkscape:zoom="5.6023739"
     inkscape:cx="375.11595"
     inkscape:cy="46.127756"
     inkscape:window-x="0"
     inkscape:window-y="0"
     inkscape:window-maximized="1"
     inkscape:current-layer="svg333"
     inkscape:snap-bbox="true"
     inkscape:bbox-paths="true"
     inkscape:snap-nodes="false"
     inkscape:bbox-nodes="true"
     inkscape:snap-page="true" /><style
     type="text/css"
     id="style2">
	.st0{fill:#A20A43;}
	.st1{fill:url(#SVGID_1_);}
	.st2{fill:#FFFFFF;}
	.st3{fill:url(#SVGID_2_);stroke:#9E1F63;stroke-miterlimit:10;}
	.st4{fill:#A20A43;stroke:#EC008C;stroke-width:2;stroke-miterlimit:10;}
	.st5{fill:#A20A43;stroke:#EC008C;stroke-miterlimit:10;}
	.st6{fill:url(#SVGID_3_);}
	.st7{fill:#ED1C24;}
	.st8{fill:#9E1F63;}
	.st9{fill:#6C0341;}
	.st10{fill:url(#SVGID_4_);}
	.st11{fill:none;stroke:url(#SVGID_5_);stroke-width:3;stroke-miterlimit:10;}
	.st12{fill:url(#SVGID_6_);}
	.st13{fill:url(#SVGID_7_);}
	.st14{fill:url(#SVGID_8_);}
	.st15{fill:url(#SVGID_9_);}
	.st16{fill:url(#SVGID_10_);}
	.st17{fill:url(#SVGID_11_);}
	.st18{fill:#2B3990;}
	.st19{fill:#262262;}
	.st20{fill:#04003F;}
	.st21{fill:url(#SVGID_12_);}
	.st22{fill:url(#SVGID_13_);}
	.st23{fill:#8F0064;}
	.st24{fill:#470045;}
	.st25{fill:url(#SVGID_14_);}
	.st26{fill:none;stroke:#006838;stroke-width:2;stroke-miterlimit:10;}
	.st27{fill:none;stroke:#009444;stroke-width:2;stroke-miterlimit:10;}
	.st28{fill:#006838;stroke:#006838;stroke-width:2;stroke-miterlimit:10;}
	.st29{fill:#009444;stroke:#009444;stroke-width:2;stroke-miterlimit:10;}
	.st30{fill:url(#SVGID_15_);}
	.st31{fill:url(#SVGID_16_);}
	.st32{fill:#B2104A;}
	.st33{fill:#DA1C5C;}
</style><g
     id="block_1_1_"
     transform="matrix(0.96969697,0,0,1,81.454546,-115)"><g
       id="Layer_9" /><g
       id="g41"><path
         class="st0"
         d="m 84.2,134.9 c 1.2,1.6 1.4,4 2.5,5.7 0.6,0.9 1.7,3 2.8,3.3 1.4,0.4 3.3,-3 3.9,-4 0.8,-1.3 2.2,-3 2.3,-4.6 0.3,-2.6 -5.2,-2.2 -6.9,-2.1 -0.9,0.1 -1.8,0.3 -2.7,0.4 -0.7,0.1 -1.2,0 -1.3,0.6 -0.1,0.6 0.6,2.5 0.8,3"
         id="path5"
         inkscape:connector-curvature="0"
         style="fill:#a20a43" /><g
         id="g18"><linearGradient
           id="SVGID_1_"
           gradientUnits="userSpaceOnUse"
           x1="64.490997"
           y1="138.94839"
           x2="114.0457"
           y2="138.94839"><stop
             offset="5.376340e-003"
             style="stop-color:#EE3024"
             id="stop7" /><stop
             offset="1"
             style="stop-color:#F58357"
             id="stop9" /></linearGradient><path
           class="st1"
           d="m 114,151 c 0,6.6 -5.4,12 -12,12 H 76.5 c -6.6,0 -12,-5.4 -12,-12 v -24 c 0,-6.6 5.4,-12 12,-12 H 102 c 6.6,0 12,5.4 12,12 z"
           id="path12"
           style="fill:url(#SVGID_1_)"
           inkscape:connector-curvature="0" /><path
           class="st2"
           d="m 94.6,116.3 c 5.6,0.4 13.9,1.3 16.1,7.6 1.5,4.3 1.7,9.5 1.7,14.1 0.5,-5 -3.9,-11.8 -7.6,-14.8 -2.3,-1.8 -4.7,-2.6 -7.5,-3.3 -2.6,-0.6 -5.3,-1.9 -8,-2 3.9,-0.7 7.3,-1.7 11.4,-0.9"
           id="path14"
           inkscape:connector-curvature="0"
           style="fill:#ffffff" /><path
           class="st2"
           d="m 68.7,149.1 c -2.6,2.9 -1,6.7 1.9,8.3 2.9,1.6 5.2,1.7 8.5,1.7 -6.3,1 -9.3,-9 -8,-13.7 -1.2,1.7 -3.1,4 -3.4,6.1"
           id="path16"
           inkscape:connector-curvature="0"
           style="fill:#ffffff" /></g><linearGradient
         id="SVGID_2_"
         gradientUnits="userSpaceOnUse"
         x1="74.2118"
         y1="138.9489"
         x2="105.7118"
         y2="138.9489"><stop
           offset="5.376340e-003"
           style="stop-color:#E76224"
           id="stop20" /><stop
           offset="1"
           style="stop-color:#65BDD6"
           id="stop22" /><stop
           offset="1"
           style="stop-color:#74CFEC"
           id="stop24" /></linearGradient><path
         class="st3"
         d="m 105.7,139.3 c 0,8 -5.6,14.6 -12.6,14.6 h -6.3 c -7,0 -12.6,-6.5 -12.6,-14.6 v -0.6 c 0,-8 5.6,-14.6 12.6,-14.6 h 6.3 c 7,0 12.6,6.5 12.6,14.6 z"
         id="path27"
         style="fill:url(#SVGID_2_);stroke:#9e1f63;stroke-miterlimit:10"
         inkscape:connector-curvature="0" /><line
         class="st4"
         x1="83"
         y1="133.3"
         x2="97.300003"
         y2="133.10001"
         id="line29"
         style="fill:#a20a43;stroke:#ec008c;stroke-width:2;stroke-miterlimit:10" /><line
         class="st4"
         x1="97.300003"
         y1="133.10001"
         x2="90.699997"
         y2="146.10001"
         id="line31"
         style="fill:#a20a43;stroke:#ec008c;stroke-width:2;stroke-miterlimit:10" /><line
         class="st4"
         x1="89.5"
         y1="145.8"
         x2="83"
         y2="133.7"
         id="line33"
         style="fill:#a20a43;stroke:#ec008c;stroke-width:2;stroke-miterlimit:10" /><circle
         class="st5"
         cx="83.400002"
         cy="133.7"
         id="ellipse35"
         r="3.8"
         style="fill:#a20a43;stroke:#ec008c;stroke-miterlimit:10" /><circle
         class="st5"
         cx="90.199997"
         cy="146.2"
         id="ellipse37"
         r="3.8"
         style="fill:#a20a43;stroke:#ec008c;stroke-miterlimit:10" /><circle
         class="st5"
         cx="97.300003"
         cy="133.7"
         id="ellipse39"
         r="3.8"
         style="fill:#a20a43;stroke:#ec008c;stroke-miterlimit:10" /></g></g><g
     id="block_2"
     transform="matrix(0.96774194,0,0,1,162.77419,-61)"><g
       id="g75"><linearGradient
         id="SVGID_3_"
         gradientUnits="userSpaceOnUse"
         x1="129.4077"
         y1="84.949799"
         x2="178.9624"
         y2="84.949799"><stop
           offset="0"
           style="stop-color:#FFF33B"
           id="stop44" /><stop
           offset="5.265583e-002"
           style="stop-color:#FFE029"
           id="stop46" /><stop
           offset="0.1153"
           style="stop-color:#FFD218"
           id="stop48" /><stop
           offset="0.1799"
           style="stop-color:#FEC90F"
           id="stop50" /><stop
           offset="0.2486"
           style="stop-color:#FDC70C"
           id="stop52" /><stop
           offset="0.5449"
           style="stop-color:#F3903F"
           id="stop54" /><stop
           offset="0.8177"
           style="stop-color:#ED683C"
           id="stop56" /><stop
           offset="1"
           style="stop-color:#E93E3A"
           id="stop58" /></linearGradient><path
         class="st6"
         d="m 179,97 c 0,6.6 -5.4,12 -12,12 h -25.6 c -6.6,0 -12,-5.4 -12,-12 V 73 c 0,-6.6 5.4,-12 12,-12 H 167 c 6.6,0 12,5.4 12,12 z"
         id="path61"
         style="fill:url(#SVGID_3_)"
         inkscape:connector-curvature="0" /><g
         id="g73"><path
           class="st2"
           d="m 159.5,63.3 c 5.6,0.4 13.9,1.3 16.1,7.6 1.5,4.3 1.7,9.5 1.7,14.1 0.5,-5 -3.9,-11.8 -7.6,-14.8 -2.3,-1.8 -4.7,-2.6 -7.5,-3.3 -2.6,-0.6 -5.3,-1.9 -8,-2 3.9,-0.7 7.3,-1.7 11.4,-0.9"
           id="path63"
           inkscape:connector-curvature="0"
           style="fill:#ffffff" /><path
           class="st2"
           d="m 133.6,96.1 c -2.6,2.9 -1,6.7 1.9,8.3 2.9,1.6 5.2,1.7 8.5,1.7 -6.3,1 -9.3,-9 -8,-13.7 -1.2,1.7 -3.1,4 -3.4,6.1"
           id="path65"
           inkscape:connector-curvature="0"
           style="fill:#ffffff" /><ellipse
           class="st7"
           cx="153.5"
           cy="85.199997"
           rx="14.3"
           ry="14.1"
           id="ellipse67"
           style="fill:#ed1c24" /><ellipse
           class="st8"
           cx="153.60001"
           cy="84.900002"
           rx="12.1"
           ry="12"
           id="ellipse69"
           style="fill:#9e1f63" /><circle
           class="st9"
           cx="153.60001"
           cy="85.800003"
           id="ellipse71"
           r="6.5999999"
           style="fill:#6c0341" /></g></g></g><g
     id="block_3_2_"
     transform="translate(125.1,-60.5)"><g
       id="g194"
       transform="matrix(0.96774194,0,0,1,2.1580645,0)"><linearGradient
         id="SVGID_4_"
         gradientUnits="userSpaceOnUse"
         x1="66.934799"
         y1="84.528397"
         x2="116.4895"
         y2="84.528397"><stop
           offset="0"
           style="stop-color:#DCE238"
           id="stop78" /><stop
           offset="1"
           style="stop-color:#E19AC3"
           id="stop80" /></linearGradient><path
         class="st10"
         d="m 116.5,96.5 c 0,6.6 -5.4,12 -12,12 H 78.9 c -6.6,0 -12,-5.4 -12,-12 v -24 c 0,-6.6 5.4,-12 12,-12 h 25.6 c 6.6,0 12,5.4 12,12 z"
         id="path83"
         style="fill:url(#SVGID_4_)"
         inkscape:connector-curvature="0" /><path
         class="st2"
         d="m 97,61.8 c 5.6,0.4 13.9,1.3 16.1,7.6 1.5,4.3 1.7,9.5 1.7,14.1 0.5,-5 -3.9,-11.8 -7.6,-14.8 -2.3,-1.8 -4.7,-2.6 -7.5,-3.3 -2.6,-0.6 -5.3,-1.9 -8,-2 3.9,-0.7 7.3,-1.7 11.4,-0.9"
         id="path85"
         inkscape:connector-curvature="0"
         style="fill:#ffffff" /><path
         class="st2"
         d="m 71.2,94.6 c -2.6,2.9 -1,6.7 1.9,8.3 2.9,1.6 5.2,1.7 8.5,1.7 -6.3,1 -9.3,-9 -8,-13.7 -1.2,1.7 -3.1,4 -3.4,6.1"
         id="path87"
         inkscape:connector-curvature="0"
         style="fill:#ffffff" /><linearGradient
         id="SVGID_5_"
         gradientUnits="userSpaceOnUse"
         x1="82.071899"
         y1="82.8834"
         x2="117.0104"
         y2="82.8834"
         gradientTransform="matrix(0.9239,-0.3826,0.3826,0.9239,-30.7811,46.4623)"><stop
           offset="0"
           style="stop-color:#B24C9C"
           id="stop89" /><stop
           offset="3.218249e-002"
           style="stop-color:#A65BA4"
           id="stop91" /><stop
           offset="0.1071"
           style="stop-color:#8D73B2"
           id="stop93" /><stop
           offset="0.1837"
           style="stop-color:#7383BE"
           id="stop95" /><stop
           offset="0.2613"
           style="stop-color:#588EC7"
           id="stop97" /><stop
           offset="0.3402"
           style="stop-color:#3B96CE"
           id="stop99" /><stop
           offset="0.4211"
           style="stop-color:#1B9AD2"
           id="stop101" /><stop
           offset="0.5072"
           style="stop-color:#009CD4"
           id="stop103" /><stop
           offset="1"
           style="stop-color:#C34D9C"
           id="stop105" /></linearGradient><path
         class="st11"
         d="m 112,87.9 c -5,9.4 -16.9,13.7 -26.7,9.7 -7.8,-3.2 -10.8,-11.9 -6.8,-19.4 3.2,-6 10.8,-8.8 17.1,-6.2 5,2.1 6.9,7.6 4.4,12.4 -2.1,3.8 -6.9,5.6 -10.9,4 -3.2,-1.3 -4.4,-4.9 -2.8,-8 1.3,-2.5 4.4,-3.6 7,-2.5 2,0.8 2.8,3.1 1.8,5.1 -0.8,1.6 -2.8,2.3 -4.5,1.6 -1.3,-0.5 -1.8,-2 -1.1,-3.3"
         id="path108"
         style="fill:none;stroke:url(#SVGID_5_);stroke-width:3;stroke-miterlimit:10"
         inkscape:connector-curvature="0" /><linearGradient
         id="SVGID_6_"
         gradientUnits="userSpaceOnUse"
         x1="87.0662"
         y1="93.9254"
         x2="92.821602"
         y2="93.9254"><stop
           offset="0"
           style="stop-color:#B24C9C"
           id="stop110" /><stop
           offset="3.218249e-002"
           style="stop-color:#A65BA4"
           id="stop112" /><stop
           offset="0.1071"
           style="stop-color:#8D73B2"
           id="stop114" /><stop
           offset="0.1837"
           style="stop-color:#7383BE"
           id="stop116" /><stop
           offset="0.2613"
           style="stop-color:#588EC7"
           id="stop118" /><stop
           offset="0.3402"
           style="stop-color:#3B96CE"
           id="stop120" /><stop
           offset="0.4211"
           style="stop-color:#1B9AD2"
           id="stop122" /><stop
           offset="0.5072"
           style="stop-color:#009CD4"
           id="stop124" /><stop
           offset="1"
           style="stop-color:#C34D9C"
           id="stop126" /></linearGradient><circle
         class="st12"
         cx="89.900002"
         cy="93.900002"
         id="ellipse129"
         style="fill:url(#SVGID_6_)"
         r="2.9000001" /><linearGradient
         id="SVGID_7_"
         gradientUnits="userSpaceOnUse"
         x1="80.3172"
         y1="89.896103"
         x2="86.072502"
         y2="89.896103"><stop
           offset="0"
           style="stop-color:#B24C9C"
           id="stop131" /><stop
           offset="3.218249e-002"
           style="stop-color:#A65BA4"
           id="stop133" /><stop
           offset="0.1071"
           style="stop-color:#8D73B2"
           id="stop135" /><stop
           offset="0.1837"
           style="stop-color:#7383BE"
           id="stop137" /><stop
           offset="0.2613"
           style="stop-color:#588EC7"
           id="stop139" /><stop
           offset="0.3402"
           style="stop-color:#3B96CE"
           id="stop141" /><stop
           offset="0.4211"
           style="stop-color:#1B9AD2"
           id="stop143" /><stop
           offset="0.5072"
           style="stop-color:#009CD4"
           id="stop145" /><stop
           offset="1"
           style="stop-color:#C34D9C"
           id="stop147" /></linearGradient><circle
         class="st13"
         cx="83.199997"
         cy="89.900002"
         id="ellipse150"
         style="fill:url(#SVGID_7_)"
         r="2.9000001" /><linearGradient
         id="SVGID_8_"
         gradientUnits="userSpaceOnUse"
         x1="79.474403"
         y1="82.922699"
         x2="83.729301"
         y2="82.922699"><stop
           offset="0"
           style="stop-color:#B24C9C"
           id="stop152" /><stop
           offset="3.218249e-002"
           style="stop-color:#A65BA4"
           id="stop154" /><stop
           offset="0.1071"
           style="stop-color:#8D73B2"
           id="stop156" /><stop
           offset="0.1837"
           style="stop-color:#7383BE"
           id="stop158" /><stop
           offset="0.2613"
           style="stop-color:#588EC7"
           id="stop160" /><stop
           offset="0.3402"
           style="stop-color:#3B96CE"
           id="stop162" /><stop
           offset="0.4211"
           style="stop-color:#1B9AD2"
           id="stop164" /><stop
           offset="0.5072"
           style="stop-color:#009CD4"
           id="stop166" /><stop
           offset="1"
           style="stop-color:#C34D9C"
           id="stop168" /></linearGradient><ellipse
         class="st14"
         cx="81.599998"
         cy="82.900002"
         rx="2.0999999"
         ry="2.4000001"
         id="ellipse171"
         style="fill:url(#SVGID_8_)" /><linearGradient
         id="SVGID_9_"
         gradientUnits="userSpaceOnUse"
         x1="94.724899"
         y1="93.3424"
         x2="98.978798"
         y2="93.3424"><stop
           offset="0"
           style="stop-color:#B24C9C"
           id="stop173" /><stop
           offset="3.218249e-002"
           style="stop-color:#A65BA4"
           id="stop175" /><stop
           offset="0.1071"
           style="stop-color:#8D73B2"
           id="stop177" /><stop
           offset="0.1837"
           style="stop-color:#7383BE"
           id="stop179" /><stop
           offset="0.2613"
           style="stop-color:#588EC7"
           id="stop181" /><stop
           offset="0.3402"
           style="stop-color:#3B96CE"
           id="stop183" /><stop
           offset="0.4211"
           style="stop-color:#1B9AD2"
           id="stop185" /><stop
           offset="0.5072"
           style="stop-color:#009CD4"
           id="stop187" /><stop
           offset="1"
           style="stop-color:#C34D9C"
           id="stop189" /></linearGradient><ellipse
         class="st15"
         cx="96.900002"
         cy="93.300003"
         rx="2.0999999"
         ry="2.3"
         id="ellipse192"
         style="fill:url(#SVGID_9_)" /></g></g><g
     id="block_4_1_"
     transform="matrix(0.95049505,0,0,0.99378882,-4.5623762,-59.925466)"><g
       id="g235"><linearGradient
         id="SVGID_10_"
         gradientUnits="userSpaceOnUse"
         x1="4.7084999"
         y1="84.451698"
         x2="55.2915"
         y2="84.451698"><stop
           offset="0"
           style="stop-color:#A7DDE9"
           id="stop197" /><stop
           offset="3.767692e-002"
           style="stop-color:#90CEE6"
           id="stop199" /><stop
           offset="9.568798e-002"
           style="stop-color:#72BFE4"
           id="stop201" /><stop
           offset="0.155"
           style="stop-color:#5BB6E3"
           id="stop203" /><stop
           offset="0.216"
           style="stop-color:#4BB0E3"
           id="stop205" /><stop
           offset="0.2809"
           style="stop-color:#44AEE3"
           id="stop207" /><stop
           offset="0.6685"
           style="stop-color:#0361AB"
           id="stop209" /><stop
           offset="0.8876"
           style="stop-color:#0857A8"
           id="stop211" /></linearGradient><path
         class="st16"
         d="m 55.3,96.5 c 0,6.7 -5.5,12.1 -12.2,12.1 H 17 C 10.2,108.6 4.8,103.2 4.8,96.5 V 72.4 C 4.8,65.7 10.3,60.3 17,60.3 h 26 c 6.8,0 12.2,5.4 12.2,12.1 v 24.1 z"
         id="path214"
         style="fill:url(#SVGID_10_)"
         inkscape:connector-curvature="0" /><g
         id="g233"><linearGradient
           id="SVGID_11_"
           gradientUnits="userSpaceOnUse"
           x1="12.2144"
           y1="84.528397"
           x2="47.616699"
           y2="84.528397"><stop
             offset="5.376340e-003"
             style="stop-color:#53C8EA"
             id="stop216" /><stop
             offset="1"
             style="stop-color:#364A9F"
             id="stop218" /></linearGradient><ellipse
           class="st17"
           cx="29.9"
           cy="84.5"
           rx="17.700001"
           ry="16.5"
           id="ellipse221"
           style="fill:url(#SVGID_11_)" /><polygon
           class="st18"
           points="25.6,78.2 30.7,68.8 35.5,78.4 46.5,80.1 38.3,87.4 40,97.9 30.2,92.8 20.3,97.5 22.4,87.1 14.5,79.5 "
           id="polygon223"
           style="fill:#2b3990" /><polygon
           class="st19"
           points="26.2,79.3 30.3,71.8 34.2,79.4 43,80.7 36.6,86.5 38,94.9 30.1,90.9 22.2,94.8 23.8,86.5 17.4,80.5 "
           id="polygon225"
           style="fill:#262262" /><ellipse
           class="st20"
           cx="29.5"
           cy="84.900002"
           rx="3.9000001"
           ry="3.5"
           id="ellipse227"
           style="fill:#04003f" /><path
           class="st2"
           d="m 7.7,95.9 c -2.6,2.9 -1,6.7 1.9,8.3 2.9,1.6 5.2,1.7 8.5,1.7 -6.3,1 -9.3,-9 -8,-13.7 -1.2,1.7 -3.1,4 -3.4,6.1"
           id="path229"
           inkscape:connector-curvature="0"
           style="fill:#ffffff" /><path
           class="st2"
           d="m 35.2,61.6 c 5.6,0.4 13.9,1.3 16.1,7.6 1.5,4.3 1.7,9.5 1.7,14.1 0.5,-5 -3.9,-11.8 -7.6,-14.8 -2.3,-1.8 -4.7,-2.6 -7.5,-3.3 -2.6,-0.6 -5.3,-1.9 -8,-2 3.9,-0.7 7.3,-1.7 11.4,-0.9"
           id="path231"
           inkscape:connector-curvature="0"
           style="fill:#ffffff" /></g></g></g><g
     id="block_5"
     transform="matrix(0.96774194,0,0,1.0191083,116.12903,-4.5859871)"><g
       id="g268"><linearGradient
         id="SVGID_12_"
         gradientUnits="userSpaceOnUse"
         x1="127.9521"
         y1="28.0625"
         x2="177.50681"
         y2="28.0625"><stop
           offset="0"
           style="stop-color:#F593A0"
           id="stop238" /><stop
           offset="1"
           style="stop-color:#78287C"
           id="stop240" /></linearGradient><path
         class="st21"
         d="m 177.5,39.8 c 0,6.5 -5.4,11.8 -12,11.8 H 140 c -6.6,0 -12,-5.3 -12,-11.8 V 16.3 c 0,-6.5 5.4,-11.8 12,-11.8 h 25.6 c 6.6,0 12,5.3 12,11.8 v 23.5 z"
         id="path243"
         style="fill:url(#SVGID_12_)"
         inkscape:connector-curvature="0" /><path
         class="st2"
         d="m 158,5.9 c 5.6,0.4 13.9,1.3 16.1,7.6 1.5,4.3 1.7,9.5 1.7,14.1 0.5,-5 -3.9,-11.8 -7.6,-14.8 -2.3,-1.8 -4.7,-2.6 -7.5,-3.3 -2.6,-0.6 -5.3,-1.9 -8,-2 3.9,-0.7 7.3,-1.7 11.4,-0.9"
         id="path245"
         inkscape:connector-curvature="0"
         style="fill:#ffffff" /><path
         class="st2"
         d="m 132.2,38.7 c -2.6,2.9 -1,6.7 1.9,8.3 2.9,1.6 5.2,1.7 8.5,1.7 -6.3,1 -9.3,-9 -8,-13.7 -1.2,1.7 -3.1,4 -3.4,6.1"
         id="path247"
         inkscape:connector-curvature="0"
         style="fill:#ffffff" /><linearGradient
         id="SVGID_13_"
         gradientUnits="userSpaceOnUse"
         x1="137.6855"
         y1="28.5595"
         x2="167.77251"
         y2="28.5595"><stop
           offset="0"
           style="stop-color:#F593A0"
           id="stop249" /><stop
           offset="1"
           style="stop-color:#78287C"
           id="stop251" /></linearGradient><polygon
         class="st22"
         points="145.2,15.4 160.2,15.5 167.8,28.7 160.3,41.7 145.2,41.6 137.7,28.5 "
         id="polygon254"
         style="fill:url(#SVGID_13_)" /><polygon
         class="st23"
         points="141.7,13 148.5,13 151.9,18.9 148.4,24.8 141.6,24.8 138.3,18.9 "
         id="polygon256"
         style="fill:#8f0064" /><polygon
         class="st24"
         points="142.4,14.3 147.9,14.2 150.6,18.8 147.7,23.5 142.2,23.6 139.6,19 "
         id="polygon258"
         style="fill:#470045" /><polygon
         class="st23"
         points="157.6,33.8 164.4,33.8 167.8,39.7 164.3,45.6 157.6,45.6 154.2,39.7 "
         id="polygon260"
         style="fill:#8f0064" /><polygon
         class="st24"
         points="158.3,34.9 163.9,34.9 166.6,39.6 163.7,44.4 158.1,44.5 155.4,39.7 "
         id="polygon262"
         style="fill:#470045" /><polygon
         class="st23"
         points="150.3,25.6 155.3,25.6 157.7,29.8 155.1,34.1 150.2,34.1 147.8,29.9 "
         id="polygon264"
         style="fill:#8f0064" /><polygon
         class="st24"
         points="150.9,26.6 154.8,26.5 156.6,29.8 154.6,33.1 150.7,33.2 148.8,29.9 "
         id="polygon266"
         style="fill:#470045" /></g></g><g
     id="block_6"
     transform="matrix(0.96774194,0,0,1,33.774193,-4.0999998)"><g
       id="g292"><linearGradient
         id="SVGID_14_"
         gradientUnits="userSpaceOnUse"
         x1="64.341797"
         y1="28.0625"
         x2="113.8965"
         y2="28.0625"><stop
           offset="0"
           style="stop-color:#5ABA47"
           id="stop271" /><stop
           offset="1"
           style="stop-color:#A6CE39"
           id="stop273" /></linearGradient><path
         class="st25"
         d="m 113.9,40.1 c 0,6.6 -5.4,12 -12,12 H 76.3 c -6.6,0 -12,-5.4 -12,-12 v -24 c 0,-6.6 5.4,-12 12,-12 h 25.6 c 6.6,0 12,5.4 12,12 z"
         id="path276"
         style="fill:url(#SVGID_14_)"
         inkscape:connector-curvature="0" /><path
         class="st2"
         d="m 94.4,5.4 c 5.6,0.4 13.9,1.3 16.1,7.6 1.5,4.3 1.7,9.5 1.7,14.1 0.5,-5 -3.9,-11.8 -7.6,-14.8 C 102.3,10.5 99.9,9.7 97.1,9 94.5,8.4 91.8,7.1 89.1,7 93,6.3 96.4,5.3 100.5,6.1"
         id="path278"
         inkscape:connector-curvature="0"
         style="fill:#ffffff" /><path
         class="st2"
         d="m 68.6,38.2 c -2.6,2.9 -1,6.7 1.9,8.3 2.9,1.6 5.2,1.7 8.5,1.7 -6.3,1 -9.3,-9 -8,-13.7 -1.2,1.7 -3.1,4 -3.4,6.1"
         id="path280"
         inkscape:connector-curvature="0"
         style="fill:#ffffff" /><ellipse
         class="st26"
         cx="89.900002"
         cy="29.5"
         rx="15.1"
         ry="14.2"
         id="ellipse282"
         style="fill:none;stroke:#006838;stroke-width:2;stroke-miterlimit:10" /><ellipse
         class="st27"
         cx="98.199997"
         cy="19.700001"
         rx="5.1999998"
         ry="5.3000002"
         id="ellipse284"
         style="fill:none;stroke:#009444;stroke-width:2;stroke-miterlimit:10" /><ellipse
         class="st27"
         cx="79"
         cy="38.700001"
         rx="5.1999998"
         ry="5.3000002"
         id="ellipse286"
         style="fill:none;stroke:#009444;stroke-width:2;stroke-miterlimit:10" /><circle
         class="st28"
         cx="89.300003"
         cy="29.5"
         r="4.5"
         id="circle288"
         style="fill:#006838;stroke:#006838;stroke-width:2;stroke-miterlimit:10" /><ellipse
         class="st29"
         cx="89.300003"
         cy="29.4"
         rx="2.5999999"
         ry="2.4000001"
         id="ellipse290"
         style="fill:#009444;stroke:#009444;stroke-width:2;stroke-miterlimit:10" /></g></g><g
     id="bomb_block"
     transform="matrix(0.96774194,0,0,1,42.967742,-4.2999998)"><g
       id="Layer_12" /><g
       id="g330"><linearGradient
         id="SVGID_15_"
         gradientUnits="userSpaceOnUse"
         x1="5.2227001"
         y1="28.3111"
         x2="54.777302"
         y2="28.3111"><stop
           offset="0"
           style="stop-color:#BABCBE"
           id="stop296" /><stop
           offset="1"
           style="stop-color:#000000"
           id="stop298" /></linearGradient><path
         class="st30"
         d="m 54.8,40.3 c 0,6.6 -5.4,12 -12,12 H 17.2 c -6.6,0 -12,-5.4 -12,-12 v -24 c 0,-6.6 5.4,-12 12,-12 h 25.6 c 6.6,0 12,5.4 12,12 z"
         id="path301"
         style="fill:url(#SVGID_15_)"
         inkscape:connector-curvature="0" /><path
         class="st2"
         d="m 37.2,5.3 c 5.1,0.4 12.6,1.2 14.7,6.8 1.4,3.8 1.6,8.6 1.6,12.6 C 53.9,20.2 49.9,14.2 46.6,11.5 44.6,9.8 42.3,9.1 39.8,8.5 37.5,8 35,6.8 32.5,6.7 35.9,6.2 39,5.2 42.7,6"
         id="path303"
         inkscape:connector-curvature="0"
         style="fill:#ffffff" /><path
         class="st2"
         d="m 9,42.7 c -1.6,3.8 1.2,7.2 4.5,7.9 3.3,0.8 5.5,0.2 8.7,-0.7 -5.7,2.8 -11.8,-6.5 -12,-11.7 -0.6,2 -1.7,5 -1.3,7.3"
         id="path305"
         inkscape:connector-curvature="0"
         style="fill:#ffffff" /><linearGradient
         id="SVGID_16_"
         gradientUnits="userSpaceOnUse"
         x1="10.4243"
         y1="29.2871"
         x2="51.839802"
         y2="29.2871"><stop
           offset="0"
           style="stop-color:#FFFFFF"
           id="stop307" /><stop
           offset="1"
           style="stop-color:#7E8083"
           id="stop309" /></linearGradient><ellipse
         class="st31"
         cx="31.1"
         cy="29.299999"
         rx="20.700001"
         ry="19.4"
         id="ellipse312"
         style="fill:url(#SVGID_16_)" /><path
         class="st32"
         d="m 35.2,21.6 c 0.9,-0.8 3,-1.7 2.9,-3.1 0,-1 -1,-2.6 -1.2,-3.6 0.8,0.6 1.8,1.2 2.7,1.8 0.4,-0.5 0.9,-0.9 1.3,-1.4 0.2,0.8 0.5,1.5 0.9,2 0.8,-0.4 1.6,-0.8 2.3,-1.5 0.1,0.7 -0.1,1.4 -0.1,2 0.7,-0.2 1.9,-0.8 2.6,-0.7 -1,1.1 -2.8,2 -3.7,3.3 -1,1.5 -1.7,3.2 -3.3,4.2"
         id="path314"
         inkscape:connector-curvature="0"
         style="fill:#b2104a" /><ellipse
         class="st32"
         cx="31.1"
         cy="31.299999"
         rx="14.2"
         ry="13.3"
         id="ellipse316"
         style="fill:#b2104a" /><ellipse
         class="st33"
         cx="31.1"
         cy="31.4"
         rx="13.6"
         ry="12.2"
         id="ellipse318"
         style="fill:#da1c5c" /><ellipse
         class="st32"
         cx="39.200001"
         cy="30.5"
         rx="3"
         ry="2.4000001"
         id="ellipse320"
         style="fill:#b2104a" /><ellipse
         class="st2"
         cx="39.200001"
         cy="29.6"
         rx="2.4000001"
         ry="2.2"
         id="ellipse322"
         style="fill:#ffffff" /><path
         class="st32"
         d="m 21.8,38.7 c -3.2,-2.7 -3.4,-6.1 -3.1,-9.8 1,5.3 4.6,10.7 10,13.3 -4.2,-0.6 -6.9,-3.1 -9.2,-5.6"
         id="path324"
         inkscape:connector-curvature="0"
         style="fill:#b2104a" /><path
         class="st33"
         d="m 35.7,21.3 c 0.8,-0.6 2.6,-1.4 2.5,-2.6 0,-0.8 -0.8,-2.1 -1.1,-2.9 0.7,0.5 1.6,1 2.3,1.4 0.3,-0.4 0.8,-0.7 1.1,-1.1 0.1,0.6 0.5,1.2 0.8,1.7 0.7,-0.3 1.4,-0.6 2,-1.2 0.1,0.6 -0.1,1.2 0,1.7 0.6,-0.2 1.6,-0.6 2.3,-0.5 -0.9,0.9 -2.4,1.6 -3.2,2.7 -0.9,1.2 -1.5,2.6 -2.9,3.5"
         id="path326"
         inkscape:connector-curvature="0"
         style="fill:#da1c5c" /><path
         class="st2"
         d="m 21.7,38.2 c -2.4,-2.4 -2.5,-5.4 -2.3,-8.6 0.7,4.7 3.4,9.4 7.5,11.8 -3.2,-0.5 -5.1,-2.8 -6.8,-4.9"
         id="path328"
         inkscape:connector-curvature="0"
         style="fill:#ffffff" /></g></g><rect
     style="opacity:1;vector-effect:none;fill:#00ffff;fill-opacity:0.28693181;stroke:#008080;stroke-width:1.36799622;stroke-linecap:butt;stroke-linejoin:miter;stroke-miterlimit:4;stroke-dasharray:none;stroke-dashoffset:0;stroke-opacity:0.50852275"
     id="rect990"
     width="46.631996"
     height="46.632004"
     x="336.68402"
     y="0.68399811"
     ry="11.423729" /></svg>