<?xml version="1.0" encoding="UTF-8" standalone="no"?>
<!-- Created with Inkscape (http://www.inkscape.org/) -->

<svg
   xmlns:dc="http://purl.org/dc/elements/1.1/"
   xmlns:cc="http://creativecommons.org/ns#"
   xmlns:rdf="http://www.w3.org/1999/02/22-rdf-syntax-ns#"
   xmlns:svg="http://www.w3.org/2000/svg"
   xmlns="http://www.w3.org/2000/svg"
   xmlns:sodipodi="http://sodipodi.sourceforge.net/DTD/sodipodi-0.dtd"
   xmlns:inkscape="http://www.inkscape.org/namespaces/inkscape"
   width="96"
   height="24"
   viewBox="0 0 25.4 6.3500002"
   version="1.1"
   id="svg6784"
   inkscape:version="0.92.2 5c3e80d, 2017-08-06"
   sodipodi:docname="blocks_stars.svg"
   inkscape:export-filename="/home/alfonso/Programme/PicoLisp/picolispffi/sdl/picoblocks/gfx/blocks_stars.png"
   inkscape:export-xdpi="96"
   inkscape:export-ydpi="96">
  <defs
     id="defs6778" />
  <sodipodi:namedview
     id="base"
     pagecolor="#ffffff"
     bordercolor="#666666"
     borderopacity="1.0"
     inkscape:pageopacity="0.0"
     inkscape:pageshadow="2"
     inkscape:zoom="3.959798"
     inkscape:cx="33.102328"
     inkscape:cy="19.973343"
     inkscape:document-units="mm"
     inkscape:current-layer="layer1"
     showgrid="false"
     units="px"
     inkscape:snap-page="true"
     inkscape:window-width="1366"
     inkscape:window-height="708"
     inkscape:window-x="0"
     inkscape:window-y="31"
     inkscape:window-maximized="1" />
  <metadata
     id="metadata6781">
    <rdf:RDF>
      <cc:Work
         rdf:about="">
        <dc:format>image/svg+xml</dc:format>
        <dc:type
           rdf:resource="http://purl.org/dc/dcmitype/StillImage" />
        <dc:title />
      </cc:Work>
    </rdf:RDF>
  </metadata>
  <g
     inkscape:label="Ebene 1"
     inkscape:groupmode="layer"
     id="layer1"
     transform="translate(0,-290.64998)">
    <path
       inkscape:connector-curvature="0"
       style="fill:#ffcc00;stroke:none;stroke-width:0.10180894;fill-opacity:1"
       d="m 4.6699683,294.23991 -0.7027329,0.42652 -0.55742,0.98204 -0.7819478,-0.73044 -1.0650199,-0.20342 0.464851,-1.02884 -0.073082,-0.81879 0.9073109,0.0884 1.0039442,-0.48585 0.1950419,1.09208 0.609054,0.67829"
       id="path1417" />
    <path
       id="path7335"
       d="m 11.586946,292.92416 -0.400578,1.12291 0.27119,1.6151 -1.548226,-0.10659 -1.3846035,0.74549 -0.4181802,-1.58309 -0.8313496,-0.85454 1.1019047,-0.73061 0.6852573,-1.46525 1.2186323,1.0505 1.305956,0.20608"
       style="fill:#ffcc00;stroke:none;stroke-width:0.14765459;fill-opacity:1"
       inkscape:connector-curvature="0" />
    <path
       inkscape:connector-curvature="0"
       style="fill:#ffcc00;stroke:none;stroke-width:0.17452963;fill-opacity:1"
       d="m 18.516931,293.51817 -0.840375,1.13122 -0.250788,1.91949 -1.713505,-0.6548 -1.82258,0.36496 0.07356,-1.93402 -0.64495,-1.25297 1.497853,-0.44569 1.280352,-1.42001 1.01515,1.60817 1.405283,0.68365"
       id="path7337" />
    <path
       id="path7339"
       d="m 23.267245,292.52209 0.135888,0.74321 0.660519,0.80054 -0.883513,0.43199 -0.523769,0.84781 -0.73105,-0.73639 -0.727014,-0.20564 0.373319,-0.75009 -0.0881,-1.0213 1.001657,0.1905 0.782063,-0.30063"
       style="fill:#ffcc00;fill-opacity:1;stroke:none;stroke-width:0.09357224"
       inkscape:connector-curvature="0" />
  </g>
</svg>
